﻿OBJECTID,GEO,GEOID,NAME,DATE,POSITIVE,POS_NEW,POS_7DAYAVG,NEGATIVE,NEG_NEW,NEG_7DAYAVG,DEATHS,DTH_NEW,DTH_7DAYAVG,TEST_NEW,TEST_7DAYAVG,HOSP_YES,HOSP_NO,HOSP_UNK,POP,POP_MOE,PCT_POP_65,PCT_SMK,PCT_COPD,PCT_CVD,PCT_DIAB,POP_65_WI,SMK_WI,COPD_WI,CVD_WI,DIAB_WI,ShapeSTArea,ShapeSTLength
2867,County,55037,Florence,2021/03/26 19:00:00+00,429,0,0.57,1604,2,1.43,12,0,0,2,2,29,260,140,4337,,26.28364623,16.17727162,6.27494081,6.07138256,10.27061289,16.96037624,17.6,5.3,7.7,8.9,2653589283.87109,265968.749079438
3583,County,55051,Iron,2021/03/26 19:00:00+00,564,0,1,2557,2,2.14,21,0,0,2,3.14,42,404,118,5715,,29.87679671,20.62390805,4.0121043,12.84563614,15.0328012,16.96037624,17.6,5.3,7.7,8.9,4347466103.02344,350332.064493818
3786,County,55091,Pepin,2021/03/26 19:00:00+00,816,-1,0.29,3074,6,5,7,0,0,5,5.29,34,643,139,7262,,23.00993332,11.4559847,4.13192566,6.38437372,15.50916886,16.96037624,17.6,5.3,7.7,8.9,1269788303.57031,219100.920125218
3927,County,55078,Menominee,2021/03/26 19:00:00+00,792,-2,-0.29,3754,95,11,11,0,0,93,10.71,56,701,35,4579,,14.28571429,40.37114921,6.14303645,12.30542968,15.27983195,16.96037624,17.6,5.3,7.7,8.9,1890791657.98438,192847.120513515
3994,County,55041,Forest,2021/03/26 19:00:00+00,935,1,0,4301,11,5.29,23,0,0,12,5.29,52,703,180,9018,,22.90350686,23.63519198,12.42323884,14.72031762,12.33999521,16.96037624,17.6,5.3,7.7,8.9,5548910035.63672,367390.044299084
4056,County,55107,Rusk,2021/03/26 19:00:00+00,1272,-6,-0.43,5033,10,9.43,16,0,0,4,9,86,545,641,14183,,24.98279895,19.02330259,4.07433656,12.33045385,7.43590395,16.96037624,17.6,5.3,7.7,8.9,4902668220.77734,302007.708227095
4074,County,55011,Buffalo,2021/03/26 19:00:00+00,1322,-2,-0.14,5334,12,7,7,0,0,10,6.86,57,899,366,13167,,22.55533348,17.43654247,4.68139546,13.88711184,12.26226124,16.96037624,17.6,5.3,7.7,8.9,3597712790.89844,297407.68256364
4090,County,55099,Price,2021/03/26 19:00:00+00,1174,0,0.14,5548,7,7.86,7,0,0,7,8,89,362,723,13490,,27.0495365,22.77521406,4.80402011,12.9850755,10.80710614,16.96037624,17.6,5.3,7.7,8.9,6780339385.17969,333290.631711126
4105,County,55119,Taylor,2021/03/26 19:00:00+00,1800,2,1,5876,8,5.86,23,0,0.14,10,6.86,64,1219,517,20356,,19.16423712,19.47267295,3.99476465,10.12266496,9.94312786,16.96037624,17.6,5.3,7.7,8.9,5137786729.77734,306881.556921938
4108,County,55013,Burnett,2021/03/26 19:00:00+00,1225,0,0,6016,-11,-10.29,22,0,-0.14,-11,-10.29,95,755,375,15258,,27.40985305,22.07846742,4.93122065,13.67118097,11.52749936,16.96037624,17.6,5.3,7.7,8.9,4697324770.76562,366429.962364556
4111,County,55077,Marquette,2021/03/26 19:00:00+00,1325,0,0.29,6156,18,7,21,0,0,18,7.29,73,1249,3,15207,,25.49096111,18.77422808,9.6334782,12.26562457,12.92064863,16.96037624,17.6,5.3,7.7,8.9,2311411063.83984,209578.088698761
4127,County,55129,Washburn,2021/03/26 19:00:00+00,1345,2,2.43,6445,-112,-5.57,18,0,0,-110,-3.14,95,672,578,15689,,26.38617296,22.26168394,6.83641807,7.0461038,13.47003096,16.96037624,17.6,5.3,7.7,8.9,4562524359.33203,279035.940438149
4130,County,55065,Lafayette,2021/03/26 19:00:00+00,1488,0,1,6521,12,9.71,6,0,0,12,10.71,75,704,709,16735,,17.27181188,12.87341217,4.33689961,6.1111729,11.40157919,16.96037624,17.6,5.3,7.7,8.9,3040069325.83594,224068.397447375
4158,County,55007,Bayfield,2021/03/26 19:00:00+00,1072,1,1.29,6861,9,9.86,19,0,0,10,11.14,47,420,605,14992,,28.96606156,18.18902776,6.46685606,7.09582711,7.29118377,16.96037624,17.6,5.3,7.7,8.9,8273016941.5625,516531.049687877
4164,County,55003,Ashland,2021/03/26 19:00:00+00,1196,2,1.29,6953,29,10.43,16,0,0,31,11.71,54,178,964,15712,,19.85122612,23.86375811,5.73247984,10.06849388,9.76662023,16.96037624,17.6,5.3,7.7,8.9,5727268628.4375,770460.66048926
4168,County,55067,Langlade,2021/03/26 19:00:00+00,1942,0,0,7084,15,6.86,32,0,0,15,6.86,100,1787,55,19164,,23.78520504,17.9848559,8.74188569,14.19843444,11.18167454,16.96037624,17.6,5.3,7.7,8.9,4641061434.01562,313904.728666485
4187,County,55061,Kewaunee,2021/03/26 19:00:00+00,2335,-16,-2.71,7445,21,10.43,24,0,0,5,7.71,92,1599,644,20360,,20.05909707,11.3949457,5.58328859,6.40456206,8.26731291,16.96037624,17.6,5.3,7.7,8.9,1752585405.05859,181360.438161601
4190,County,55023,Crawford,2021/03/26 19:00:00+00,1678,1,1.14,7457,13,4.86,17,0,0,14,6,84,705,889,16288,,24.07127756,25.96850846,10.39956947,8.10619583,9.54657239,16.96037624,17.6,5.3,7.7,8.9,2924582956.78125,249753.829404911
4210,County,55047,Green Lake,2021/03/26 19:00:00+00,1531,3,0.71,7806,12,9.43,18,0,0,15,10.14,84,789,658,18757,,23.622171,27.31916295,4.4148048,11.56618081,8.49430878,16.96037624,17.6,5.3,7.7,8.9,1890481766.15625,197190.537648725
4224,County,55001,Adams,2021/03/26 19:00:00+00,1616,3,1,7993,18,11,10,0,0,21,12,87,871,658,20073,,28.97292022,22.24978168,13.41742832,19.20308289,17.09789897,16.96037624,17.6,5.3,7.7,8.9,3438449806.70312,287039.236701814
4225,County,55103,Richland,2021/03/26 19:00:00+00,1284,-13,-1.14,7997,18,6.43,15,0,0,5,5.29,71,1011,202,17539,,21.64634146,15.37566547,8.20298246,9.44983105,6.47662427,16.96037624,17.6,5.3,7.7,8.9,2889986695.23047,230442.64455316
4232,County,55113,Sawyer,2021/03/26 19:00:00+00,1560,4,1.86,8269,11,-0.43,22,0,0,15,1.43,79,1056,425,16370,,25.77101817,26.84326215,6.60184284,10.09751532,8.87566867,16.96037624,17.6,5.3,7.7,8.9,7214509140.28125,360171.461103356
4257,County,55125,Vilas,2021/03/26 19:00:00+00,2186,0,1.43,8855,11,14.29,39,0,0.14,11,15.71,131,1291,764,21593,,29.77465829,20.42129663,9.26864139,12.67771608,12.1203435,16.96037624,17.6,5.3,7.7,8.9,5471535427.30859,360890.554534532
4268,County,55053,Jackson,2021/03/26 19:00:00+00,2586,-3,0.43,9399,27,8.43,27,-1,0,24,8.86,90,783,1713,20506,,20.52361595,19.83162523,10.84690333,7.19877302,9.67178115,16.96037624,17.6,5.3,7.7,8.9,5063064807.78125,355587.792174688
4309,County,55069,Lincoln,2021/03/26 19:00:00+00,2938,4,1.43,10708,28,13.86,58,0,-0.29,32,15.29,120,1817,1001,27848,,22.12221363,23.77341735,6.57135449,14.09132224,7.4689114,16.96037624,17.6,5.3,7.7,8.9,4752866679.56641,275268.903726118
4312,County,55019,Clark,2021/03/26 19:00:00+00,3164,0,0.57,10765,17,19.71,58,0,0,17,20.29,231,2759,174,34491,,17.29944446,16.15990599,7.13812197,3.76249131,7.64311868,16.96037624,17.6,5.3,7.7,8.9,6255341804.70312,326265.465979257
4315,County,55137,Waushara,2021/03/26 19:00:00+00,2110,-7,-1,10835,16,13,31,0,0,9,12,125,1188,797,24116,,23.61511235,30.98409506,8.44363951,11.11324362,11.64368145,16.96037624,17.6,5.3,7.7,8.9,3203281170.625,239611.363862821
4323,County,55049,Iowa,2021/03/26 19:00:00+00,1947,4,1.86,11085,25,13.14,10,-1,0,29,15,76,868,1003,23620,,18.2108492,12.67133605,5.30731296,6.05865792,9.77820817,16.96037624,17.6,5.3,7.7,8.9,3720940924.01172,261542.141247622
4348,County,55121,Trempealeau,2021/03/26 19:00:00+00,3440,8,2.86,12178,20,18.14,38,0,0.14,28,21,104,1491,1845,29438,,18.33151507,18.34090142,6.59544115,8.86041484,10.42456346,16.96037624,17.6,5.3,7.7,8.9,3752945297.70703,313837.647781854
4356,County,55123,Vernon,2021/03/26 19:00:00+00,1869,0,1.57,12506,8,7.57,38,0,0.14,8,9.14,74,941,854,30516,,19.40436491,18.97032656,5.59015549,6.48540837,8.24682918,16.96037624,17.6,5.3,7.7,8.9,4031951200.36719,305596.120070778
4392,County,55029,Door,2021/03/26 19:00:00+00,2503,7,5.86,14166,33,24.57,21,0,0.14,40,30.43,85,540,1878,27439,,29.25029411,10.72315606,3.24541969,11.29897678,13.56038636,16.96037624,17.6,5.3,7.7,8.9,2521368817.16797,677955.026268376
4396,County,55057,Juneau,2021/03/26 19:00:00+00,3038,2,1.29,14445,34,5.57,20,0,0,36,6.86,153,941,1944,26419,,21.66641891,29.32291596,4.00853992,12.26053847,8.49558053,16.96037624,17.6,5.3,7.7,8.9,4020998381.36328,337622.596943843
4404,County,55085,Oneida,2021/03/26 19:00:00+00,3487,11,5,14915,1,14.14,68,0,0,12,19.14,175,1466,1846,35345,,25.90148414,18.63932834,6.9042275,9.49114516,9.294129,16.96037624,17.6,5.3,7.7,8.9,6566178133.62891,372653.775626682
4428,County,55093,Pierce,2021/03/26 19:00:00+00,3600,7,3.86,16669,35,23.29,35,0,0,42,27.14,123,2420,1057,41603,,14.02425844,13.97356783,4.68974582,7.49678807,9.05044219,16.96037624,17.6,5.3,7.7,8.9,3035527920.54688,232701.849894899
4430,County,55045,Green,2021/03/26 19:00:00+00,3320,14,7.71,16748,49,22,16,0,0,63,29.71,167,2382,771,36864,,18.37836372,10.34528473,5.56913884,10.79049601,11.94327719,16.96037624,17.6,5.3,7.7,8.9,2802746926.62891,212054.042949137
4432,County,55083,Oconto,2021/03/26 19:00:00+00,4313,-6,0,16887,32,21.43,49,0,0.14,26,21.43,209,3602,502,37556,,19.4747379,16.69607184,5.52454603,10.80684821,14.19632973,16.96037624,17.6,5.3,7.7,8.9,5272721828.58594,438930.708423251
4441,County,55115,Shawano,2021/03/26 19:00:00+00,4603,-16,-2.71,17322,35,21.43,69,0,-0.14,19,18.71,199,3448,956,41009,,21.64808531,17.11124847,4.72109959,6.84776744,10.72457941,16.96037624,17.6,5.3,7.7,8.9,4676549354.62109,357954.859127478
4454,County,55075,Marinette,2021/03/26 19:00:00+00,3997,1,1.57,18503,11,19.57,65,0,0.14,12,21.14,233,2587,1177,40537,,24.06810299,21.91945681,7.45897745,6.03516482,8.75925893,16.96037624,17.6,5.3,7.7,8.9,7503690030.89844,552940.77206864
4458,County,55033,Dunn,2021/03/26 19:00:00+00,4355,14,5.29,18772,57,30,30,0,0,71,35.29,147,2239,1969,44498,,16.4727427,15.0202334,3.31707998,3.94436234,8.16904953,16.96037624,17.6,5.3,7.7,8.9,4466794838.08594,277720.579072528
4459,County,55081,Monroe,2021/03/26 19:00:00+00,4369,0,1.29,18866,20,25.29,34,0,0,20,26.57,155,2726,1488,45502,,17.5007609,22.39489241,6.19989065,11.84072478,10.4181093,16.96037624,17.6,5.3,7.7,8.9,4538125145.30078,281587.995266496
4462,County,55031,Douglas,2021/03/26 19:00:00+00,3729,8,4.57,18977,38,25.57,29,0,0,46,30.14,136,2794,799,43402,,18.27278115,23.68174354,10.70285283,10.9384054,9.69648157,16.96037624,17.6,5.3,7.7,8.9,7316905731.48047,374792.754627018
4464,County,55005,Barron,2021/03/26 19:00:00+00,5508,1,3.43,19279,21,22,76,0,0,22,25.43,246,3121,2141,45252,,22.95117698,22.41198037,5.27764599,9.44121086,10.2081161,16.96037624,17.6,5.3,7.7,8.9,4677777581.72266,273518.663059626
4465,County,55095,Polk,2021/03/26 19:00:00+00,4024,-4,2.57,19330,32,25.57,44,-1,-0.14,28,28.14,134,2230,1660,43349,,19.59908884,15.11612319,4.28335734,5.99569645,11.27644808,16.96037624,17.6,5.3,7.7,8.9,5034134782.13672,339213.269564856
4473,County,55135,Waupaca,2021/03/26 19:00:00+00,4746,-11,-1.29,20582,65,22.43,116,0,0.29,54,21.14,253,2363,2130,51444,,23.89862945,20.71741115,6.08122362,11.27545802,9.26157142,16.96037624,17.6,5.3,7.7,8.9,3892220630.02734,273669.552662916
4477,County,55015,Calumet,2021/03/26 19:00:00+00,5582,5,6.29,21270,33,30.29,46,0,0,38,36.57,247,3308,2027,49807,,14.22604709,10.34834806,2.26506411,8.35475356,7.62046076,16.96037624,17.6,5.3,7.7,8.9,1993435150.45703,189266.428044386
4487,County,55043,Grant,2021/03/26 19:00:00+00,4722,4,2.57,23236,40,20.57,83,0,0,44,23.14,244,2239,2239,51828,,18.72493986,17.92943868,4.12869234,8.98792174,8.53185505,16.96037624,17.6,5.3,7.7,8.9,5694522989.98828,337205.794874345
4501,County,55097,Portage,2021/03/26 19:00:00+00,6535,-1,2,26845,31,24.57,66,0,0,30,26.57,291,3365,2879,70599,,16.62778037,13.97837834,2.84981525,4.11174882,4.75114542,16.96037624,17.6,5.3,7.7,8.9,4186236048.15234,274542.268386366
4502,County,55021,Columbia,2021/03/26 19:00:00+00,5160,5,4.43,27035,38,23.14,56,0,0.14,43,27.57,282,3059,1819,56954,,17.92991178,21.03220995,4.72894373,8.39631758,8.12806802,16.96037624,17.6,5.3,7.7,8.9,3915273409.10547,306650.90492624
4510,County,55017,Chippewa,2021/03/26 19:00:00+00,7167,3,4,29142,39,25,93,0,0,42,29,236,3951,2980,63635,,17.52880723,16.66934272,6.48014542,5.8760884,8.03387845,16.96037624,17.6,5.3,7.7,8.9,5406849245.54297,303010.478701697
4515,County,55071,Manitowoc,2021/03/26 19:00:00+00,7345,12,4.86,30525,78,55.29,68,1,0.14,90,60.14,365,4607,2373,79407,,20.65317617,21.20381022,3.61995848,6.97029919,7.85154144,16.96037624,17.6,5.3,7.7,8.9,2994195852.82812,237749.980283173
4516,County,55141,Wood,2021/03/26 19:00:00+00,6735,2,2.43,31399,65,43,77,0,0,67,45.43,261,3579,2895,73274,,21.00748386,19.13191078,6.01011244,8.54576848,6.79474014,16.96037624,17.6,5.3,7.7,8.9,4114304657.85938,268062.955675583
4523,County,55111,Sauk,2021/03/26 19:00:00+00,5445,15,6.71,34800,51,24,44,0,0,66,30.71,225,3197,2023,63596,,18.13164024,17.57997422,7.31477167,8.33061932,11.01270792,16.96037624,17.6,5.3,7.7,8.9,4171491059.89453,298769.80494881
4526,County,55055,Jefferson,2021/03/26 19:00:00+00,8022,3,7.57,35772,52,45.71,105,-1,-0.14,55,53.29,370,4980,2672,84652,,16.35665781,17.76599964,5.43851129,6.87194633,6.61364675,16.96037624,17.6,5.3,7.7,8.9,2825025965.54688,212352.801370399
4527,County,55109,St. Croix,2021/03/26 19:00:00+00,6666,20,9.57,35824,92,54,47,0,-0.14,112,63.57,277,4332,2057,87917,,12.88094455,14.09219928,3.9474925,9.42986779,7.82159293,16.96037624,17.6,5.3,7.7,8.9,3814789253.19531,258501.063582408
4533,County,55027,Dodge,2021/03/26 19:00:00+00,11554,1,5.86,41067,36,40.71,158,0,0,37,46.57,617,6896,4041,87776,,18.34650524,22.5630591,5.86969757,9.72136178,11.86503308,16.96037624,17.6,5.3,7.7,8.9,4454479279.33984,269209.779551748
4534,County,55127,Walworth,2021/03/26 19:00:00+00,8995,4,7,41288,56,47.14,134,1,0.14,60,54.14,331,3251,5413,103013,,17.17487697,19.06515777,7.48654409,7.10272968,8.59024893,16.96037624,17.6,5.3,7.7,8.9,2763384637.44141,210736.578342363
4535,County,55089,Ozaukee,2021/03/26 19:00:00+00,7825,8,9.86,41323,124,66.86,81,0,0.14,132,76.71,386,2710,4729,88284,,19.62879131,7.85395018,2.839996,7.67735279,9.94915138,16.96037624,17.6,5.3,7.7,8.9,1154501050.85156,164208.192847601
4538,County,55039,Fond du Lac,2021/03/26 19:00:00+00,12059,7,5.14,45059,75,54.86,103,0,0.29,82,60,623,8562,2874,102315,,18.8308359,17.14901714,4.29739658,6.44670854,8.30969711,16.96037624,17.6,5.3,7.7,8.9,3802861865.14844,283003.692125901
4542,County,55117,Sheboygan,2021/03/26 19:00:00+00,13211,15,9.86,47286,62,49.86,133,0,0,77,59.71,533,6410,6268,115205,,18.13386893,14.41187031,5.62474379,7.22321063,8.34077339,16.96037624,17.6,5.3,7.7,8.9,2567522883.65625,201754.33473565
4544,County,55035,Eau Claire,2021/03/26 19:00:00+00,11217,15,10.57,49616,69,52.86,105,0,0,84,63.43,371,8579,2267,102991,,16.24114371,16.33314614,6.56706283,4.7010322,8.12684418,16.96037624,17.6,5.3,7.7,8.9,3310809448.64844,243677.80748982
4547,County,55073,Marathon,2021/03/26 19:00:00+00,13848,17,6.57,51091,98,70.29,184,0,0.14,115,76.86,636,10922,2290,135264,,17.1313854,19.02095822,5.2381413,9.1850309,9.36457612,16.96037624,17.6,5.3,7.7,8.9,8136851424.80859,380326.051886703
4548,County,55131,Washington,2021/03/26 19:00:00+00,14031,-6,13.14,54361,99,96.71,139,0,0.14,93,109.86,472,4522,9037,134535,,17.58398644,15.58052681,3.1170301,7.57901086,6.92660336,16.96037624,17.6,5.3,7.7,8.9,2136042605.42969,191060.862299458
4549,County,55063,La Crosse,2021/03/26 19:00:00+00,12388,11,9.14,54860,127,86.29,80,0,0,138,95.43,379,2848,9161,117850,,17.26737258,15.54077866,3.43153191,5.11949414,6.45421565,16.96037624,17.6,5.3,7.7,8.9,2395109885.23828,223679.773903047
4558,County,55059,Kenosha,2021/03/26 19:00:00+00,14917,-3,6,73249,94,82.29,303,0,-0.14,91,88.29,872,5219,8826,168330,,13.65087291,19.93967101,6.2667304,9.03203128,7.88875491,16.96037624,17.6,5.3,7.7,8.9,1330533450.07812,167453.514839121
4559,County,55105,Rock,2021/03/26 19:00:00+00,14688,5,14.57,74684,115,77.43,163,-1,0,120,92,740,9832,4116,161769,,16.49705176,20.28821246,5.79108365,9.61905138,11.38210431,16.96037624,17.6,5.3,7.7,8.9,3480473693.03906,236911.643053941
4560,County,55139,Winnebago,2021/03/26 19:00:00+00,17410,16,13.71,81706,171,99.57,186,0,0,187,113.29,729,7980,8701,169926,,16.4399093,19.27707767,4.44382751,6.41195861,8.24447332,16.96037624,17.6,5.3,7.7,8.9,2903345538.52734,215715.561516527
4561,County,55087,Outagamie,2021/03/26 19:00:00+00,19789,27,18.14,86932,200,148.86,197,0,0,227,167,715,11720,7354,184754,,14.85854189,15.37704767,3.11750496,6.53678312,9.05116442,16.96037624,17.6,5.3,7.7,8.9,3272866762,229909.836608016
4563,County,55101,Racine,2021/03/26 19:00:00+00,20618,10,15,97282,116,37.71,335,0,0.71,126,52.71,1251,15886,3481,195398,,16.37248374,17.41763508,8.06029014,7.45863345,10.73895045,16.96037624,17.6,5.3,7.7,8.9,1636226363.61719,185702.998602
4565,County,55009,Brown,2021/03/26 19:00:00+00,30575,5,9.86,130502,149,139.71,230,1,0.43,154,149.57,1251,20538,8786,259786,,14.70715902,15.93419057,4.55355953,7.63443514,9.79779928,16.96037624,17.6,5.3,7.7,8.9,2721387258.97266,331857.050826981
4574,County,55133,Waukesha,2021/03/26 19:00:00+00,41802,42,49.43,175546,409,336,498,0,0.57,451,385.43,1893,19510,20399,398879,,18.65433146,14.17052622,4.84689171,6.9748383,8.51723936,16.96037624,17.6,5.3,7.7,8.9,2814107356.61719,212117.252527239
4579,County,55025,Dane,2021/03/26 19:00:00+00,41852,60,46.29,329254,206,280.29,288,-1,0.86,266,326.57,1310,22929,17613,529843,,13.85232812,12.30597488,3.02620105,5.15192178,5.57717937,16.96037624,17.6,5.3,7.7,8.9,6008234736.25,317640.121443263
4580,County,55079,Milwaukee,2021/03/26 19:00:00+00,100179,119,108.29,469734,845,604.86,1257,1,1.14,964,713.14,6535,55645,37999,954209,,13.37488711,20.53347109,6.1515252,7.50593708,9.81624438,16.96037624,17.6,5.3,7.7,8.9,1174955788.30078,169451.932844148
