﻿OBJECTID,GEO,GEOID,NAME,DATE,POSITIVE,POS_NEW,POS_7DAYAVG,NEGATIVE,NEG_NEW,NEG_7DAYAVG,DEATHS,DTH_NEW,DTH_7DAYAVG,TEST_NEW,TEST_7DAYAVG,HOSP_YES,HOSP_NO,HOSP_UNK,POP,POP_MOE,PCT_POP_65,PCT_SMK,PCT_COPD,PCT_CVD,PCT_DIAB,POP_65_WI,SMK_WI,COPD_WI,CVD_WI,DIAB_WI,ShapeSTArea,ShapeSTLength
2904,County,55037,Florence,2021/02/11 20:00:00+00,430,0,0.29,1551,-2,2,12,0,0,-2,2.29,28,266,136,4337,,26.28364623,16.17727162,6.27494081,6.07138256,10.27061289,16.96037624,17.6,5.3,7.7,8.9,2653589283.87109,265968.749079438
3585,County,55051,Iron,2021/02/11 20:00:00+00,509,9,3.71,2419,5,4,19,0,0,14,7.71,31,373,105,5715,,29.87679671,20.62390805,4.0121043,12.84563614,15.0328012,16.96037624,17.6,5.3,7.7,8.9,4347466103.02344,350332.064493818
3789,County,55091,Pepin,2021/02/11 20:00:00+00,789,3,1,2921,4,4.43,7,0,0,7,5.43,32,615,142,7262,,23.00993332,11.4559847,4.13192566,6.38437372,15.50916886,16.96037624,17.6,5.3,7.7,8.9,1269788303.57031,219100.920125218
3950,County,55078,Menominee,2021/02/11 20:00:00+00,792,1,0.43,3754,0,1.43,11,0,0,1,1.86,54,702,36,4579,,14.28571429,40.37114921,6.14303645,12.30542968,15.27983195,16.96037624,17.6,5.3,7.7,8.9,1890791657.98438,192847.120513515
3994,County,55041,Forest,2021/02/11 20:00:00+00,916,2,0.57,4056,6,7.43,23,0,0.14,8,8,49,689,178,9018,,22.90350686,23.63519198,12.42323884,14.72031762,12.33999521,16.96037624,17.6,5.3,7.7,8.9,5548910035.63672,367390.044299084
4054,County,55107,Rusk,2021/02/11 20:00:00+00,1240,0,0.86,4702,10,9.14,16,0,0,10,10,83,516,641,14183,,24.98279895,19.02330259,4.07433656,12.33045385,7.43590395,16.96037624,17.6,5.3,7.7,8.9,4902668220.77734,302007.708227095
4074,County,55011,Buffalo,2021/02/11 20:00:00+00,1302,7,2.57,5057,42,13.71,7,0,0,49,16.29,56,875,371,13167,,22.55533348,17.43654247,4.68139546,13.88711184,12.26226124,16.96037624,17.6,5.3,7.7,8.9,3597712790.89844,297407.68256364
4089,County,55099,Price,2021/02/11 20:00:00+00,1127,3,1.86,5226,10,8,7,0,0,13,9.86,85,359,683,13490,,27.0495365,22.77521406,4.80402011,12.9850755,10.80710614,16.96037624,17.6,5.3,7.7,8.9,6780339385.17969,333290.631711126
4107,County,55119,Taylor,2021/02/11 20:00:00+00,1778,7,2.71,5553,10,8.14,20,0,0,17,10.86,65,1188,525,20356,,19.16423712,19.47267295,3.99476465,10.12266496,9.94312786,16.96037624,17.6,5.3,7.7,8.9,5137786729.77734,306881.556921938
4111,County,55013,Burnett,2021/02/11 20:00:00+00,1135,1,2.71,5768,7,10.71,23,0,0,8,13.43,90,672,373,15258,,27.40985305,22.07846742,4.93122065,13.67118097,11.52749936,16.96037624,17.6,5.3,7.7,8.9,4697324770.76562,366429.962364556
4112,County,55077,Marquette,2021/02/11 20:00:00+00,1290,1,0.71,5821,13,10.71,21,0,0,14,11.43,70,1214,6,15207,,25.49096111,18.77422808,9.6334782,12.26562457,12.92064863,16.96037624,17.6,5.3,7.7,8.9,2311411063.83984,209578.088698761
4128,County,55065,Lafayette,2021/02/11 20:00:00+00,1401,3,2.29,6117,8,11.29,7,0,0,11,13.57,71,630,700,16735,,17.27181188,12.87341217,4.33689961,6.1111729,11.40157919,16.96037624,17.6,5.3,7.7,8.9,3040069325.83594,224068.397447375
4129,County,55129,Washburn,2021/02/11 20:00:00+00,1260,3,2.43,6117,24,13.43,18,0,0,27,15.86,92,608,560,15689,,26.38617296,22.26168394,6.83641807,7.0461038,13.47003096,16.96037624,17.6,5.3,7.7,8.9,4562524359.33203,279035.940438149
4152,County,55007,Bayfield,2021/02/11 20:00:00+00,1057,1,1.43,6456,19,10,18,0,0,20,11.43,45,391,621,14992,,28.96606156,18.18902776,6.46685606,7.09582711,7.29118377,16.96037624,17.6,5.3,7.7,8.9,8273016941.5625,516531.049687877
4162,County,55003,Ashland,2021/02/11 20:00:00+00,1167,5,1.86,6589,16,10.86,16,0,0,21,12.71,50,146,971,15712,,19.85122612,23.86375811,5.73247984,10.06849388,9.76662023,16.96037624,17.6,5.3,7.7,8.9,5727268628.4375,770460.66048926
4167,County,55067,Langlade,2021/02/11 20:00:00+00,1915,2,2.14,6653,17,10.71,31,0,0,19,12.86,96,1771,48,19164,,23.78520504,17.9848559,8.74188569,14.19843444,11.18167454,16.96037624,17.6,5.3,7.7,8.9,4641061434.01562,313904.728666485
4183,County,55061,Kewaunee,2021/02/11 20:00:00+00,2396,4,4.14,6933,11,10.86,27,0,0.14,15,15,88,1619,689,20360,,20.05909707,11.3949457,5.58328859,6.40456206,8.26731291,16.96037624,17.6,5.3,7.7,8.9,1752585405.05859,181360.438161601
4197,County,55023,Crawford,2021/02/11 20:00:00+00,1650,2,1.14,7168,17,9.29,17,0,0,19,10.43,82,688,880,16288,,24.07127756,25.96850846,10.39956947,8.10619583,9.54657239,16.96037624,17.6,5.3,7.7,8.9,2924582956.78125,249753.829404911
4206,County,55047,Green Lake,2021/02/11 20:00:00+00,1513,2,2,7315,16,11.86,18,0,0.14,18,13.86,79,765,669,18757,,23.622171,27.31916295,4.4148048,11.56618081,8.49430878,16.96037624,17.6,5.3,7.7,8.9,1890481766.15625,197190.537648725
4222,County,55001,Adams,2021/02/11 20:00:00+00,1541,3,3.14,7475,20,15.29,11,0,0,23,18.43,82,827,632,20073,,28.97292022,22.24978168,13.41742832,19.20308289,17.09789897,16.96037624,17.6,5.3,7.7,8.9,3438449806.70312,287039.236701814
4234,County,55113,Sawyer,2021/02/11 20:00:00+00,1452,6,2.86,7844,17,12.71,19,0,0.29,23,15.57,69,961,422,16370,,25.77101817,26.84326215,6.60184284,10.09751532,8.87566867,16.96037624,17.6,5.3,7.7,8.9,7214509140.28125,360171.461103356
4244,County,55103,Richland,2021/02/11 20:00:00+00,1252,1,2.14,8047,11,-4.86,13,0,0,12,-2.71,73,976,203,17539,,21.64634146,15.37566547,8.20298246,9.44983105,6.47662427,16.96037624,17.6,5.3,7.7,8.9,2889986695.23047,230442.64455316
4251,County,55125,Vilas,2021/02/11 20:00:00+00,2045,10,8.57,8217,18,17.29,35,0,0.43,28,25.86,116,1195,734,21593,,29.77465829,20.42129663,9.26864139,12.67771608,12.1203435,16.96037624,17.6,5.3,7.7,8.9,5471535427.30859,360890.554534532
4276,County,55053,Jackson,2021/02/11 20:00:00+00,2560,1,1.14,9081,10,0.43,23,0,0.14,11,1.57,83,758,1719,20506,,20.52361595,19.83162523,10.84690333,7.19877302,9.67178115,16.96037624,17.6,5.3,7.7,8.9,5063064807.78125,355587.792174688
4309,County,55019,Clark,2021/02/11 20:00:00+00,3131,3,3,10045,19,19,56,0,0,22,22,223,2730,178,34491,,17.29944446,16.15990599,7.13812197,3.76249131,7.64311868,16.96037624,17.6,5.3,7.7,8.9,6255341804.70312,326265.465979257
4310,County,55069,Lincoln,2021/02/11 20:00:00+00,2860,10,5.14,10069,11,11.43,56,0,0,21,16.57,114,1744,1002,27848,,22.12221363,23.77341735,6.57135449,14.09132224,7.4689114,16.96037624,17.6,5.3,7.7,8.9,4752866679.56641,275268.903726118
4321,County,55137,Waushara,2021/02/11 20:00:00+00,2078,4,3.57,10389,19,12.29,28,-1,0.14,23,15.86,121,1164,793,24116,,23.61511235,30.98409506,8.44363951,11.11324362,11.64368145,16.96037624,17.6,5.3,7.7,8.9,3203281170.625,239611.363862821
4325,County,55049,Iowa,2021/02/11 20:00:00+00,1827,2,2.71,10491,23,15.86,9,0,0,25,18.57,68,820,939,23620,,18.2108492,12.67133605,5.30731296,6.05865792,9.77820817,16.96037624,17.6,5.3,7.7,8.9,3720940924.01172,261542.141247622
4347,County,55121,Trempealeau,2021/02/11 20:00:00+00,3339,5,5.86,11483,20,20.29,36,0,0,25,26.14,97,1435,1807,29438,,18.33151507,18.34090142,6.59544115,8.86041484,10.42456346,16.96037624,17.6,5.3,7.7,8.9,3752945297.70703,313837.647781854
4365,County,55123,Vernon,2021/02/11 20:00:00+00,1788,5,3.86,12311,14,21.14,36,0,0.29,19,25,68,897,823,30516,,19.40436491,18.97032656,5.59015549,6.48540837,8.24682918,16.96037624,17.6,5.3,7.7,8.9,4031951200.36719,305596.120070778
4392,County,55029,Door,2021/02/11 20:00:00+00,2391,8,4.29,13417,32,19.14,19,0,0.14,40,23.43,82,495,1814,27439,,29.25029411,10.72315606,3.24541969,11.29897678,13.56038636,16.96037624,17.6,5.3,7.7,8.9,2521368817.16797,677955.026268376
4403,County,55057,Juneau,2021/02/11 20:00:00+00,2941,8,5,14119,13,14.86,18,0,0.14,21,19.86,134,790,2017,26419,,21.66641891,29.32291596,4.00853992,12.26053847,8.49558053,16.96037624,17.6,5.3,7.7,8.9,4020998381.36328,337622.596943843
4407,County,55085,Oneida,2021/02/11 20:00:00+00,3285,11,7.14,14195,28,20.29,62,0,0.71,39,27.43,158,1394,1733,35345,,25.90148414,18.63932834,6.9042275,9.49114516,9.294129,16.96037624,17.6,5.3,7.7,8.9,6566178133.62891,372653.775626682
4427,County,55045,Green,2021/02/11 20:00:00+00,2916,16,16.43,15514,34,33.71,15,0,0.29,50,50.14,139,2046,731,36864,,18.37836372,10.34528473,5.56913884,10.79049601,11.94327719,16.96037624,17.6,5.3,7.7,8.9,2802746926.62891,212054.042949137
4428,County,55093,Pierce,2021/02/11 20:00:00+00,3400,6,6,15744,29,25.71,33,0,0,35,31.71,112,2272,1016,41603,,14.02425844,13.97356783,4.68974582,7.49678807,9.05044219,16.96037624,17.6,5.3,7.7,8.9,3035527920.54688,232701.849894899
4433,County,55083,Oconto,2021/02/11 20:00:00+00,4203,5,2.86,15962,40,23.43,47,0,0,45,26.29,190,3511,502,37556,,19.4747379,16.69607184,5.52454603,10.80684821,14.19632973,16.96037624,17.6,5.3,7.7,8.9,5272721828.58594,438930.708423251
4439,County,55115,Shawano,2021/02/11 20:00:00+00,4543,1,3.57,16431,22,23.71,69,0,0,23,27.29,175,3400,968,41009,,21.64808531,17.11124847,4.72109959,6.84776744,10.72457941,16.96037624,17.6,5.3,7.7,8.9,4676549354.62109,357954.859127478
4452,County,55075,Marinette,2021/02/11 20:00:00+00,3943,4,3.14,17110,43,31.29,61,0,0,47,34.43,218,2526,1199,40537,,24.06810299,21.91945681,7.45897745,6.03516482,8.75925893,16.96037624,17.6,5.3,7.7,8.9,7503690030.89844,552940.77206864
4457,County,55033,Dunn,2021/02/11 20:00:00+00,4156,4,5.57,17661,37,30.43,26,0,0,41,36,132,2100,1924,44498,,16.4727427,15.0202334,3.31707998,3.94436234,8.16904953,16.96037624,17.6,5.3,7.7,8.9,4466794838.08594,277720.579072528
4458,County,55031,Douglas,2021/02/11 20:00:00+00,3629,1,2.86,17665,29,28.29,23,0,0.71,30,31.14,129,2718,782,43402,,18.27278115,23.68174354,10.70285283,10.9384054,9.69648157,16.96037624,17.6,5.3,7.7,8.9,7316905731.48047,374792.754627018
4460,County,55081,Monroe,2021/02/11 20:00:00+00,4193,10,9.29,17796,42,30,30,0,0,52,39.29,144,2586,1463,45502,,17.5007609,22.39489241,6.19989065,11.84072478,10.4181093,16.96037624,17.6,5.3,7.7,8.9,4538125145.30078,281587.995266496
4463,County,55095,Polk,2021/02/11 20:00:00+00,3732,15,13.43,18036,56,38.71,43,0,0.14,71,52.14,112,1991,1629,43349,,19.59908884,15.11612319,4.28335734,5.99569645,11.27644808,16.96037624,17.6,5.3,7.7,8.9,5034134782.13672,339213.269564856
4466,County,55005,Barron,2021/02/11 20:00:00+00,5217,12,7.71,18290,35,27,74,0,0.29,47,34.71,225,2920,2072,45252,,22.95117698,22.41198037,5.27764599,9.44121086,10.2081161,16.96037624,17.6,5.3,7.7,8.9,4677777581.72266,273518.663059626
4471,County,55135,Waupaca,2021/02/11 20:00:00+00,4702,3,7.14,19109,70,36,110,1,0.29,73,43.14,247,2322,2133,51444,,23.89862945,20.71741115,6.08122362,11.27545802,9.26157142,16.96037624,17.6,5.3,7.7,8.9,3892220630.02734,273669.552662916
4477,County,55015,Calumet,2021/02/11 20:00:00+00,5370,17,9,19728,97,49.29,40,0,0.14,114,58.29,222,3199,1949,49807,,14.22604709,10.34834806,2.26506411,8.35475356,7.62046076,16.96037624,17.6,5.3,7.7,8.9,1993435150.45703,189266.428044386
4487,County,55043,Grant,2021/02/11 20:00:00+00,4576,7,5.29,22128,43,38.71,79,0,0,50,44,231,2160,2185,51828,,18.72493986,17.92943868,4.12869234,8.98792174,8.53185505,16.96037624,17.6,5.3,7.7,8.9,5694522989.98828,337205.794874345
4501,County,55097,Portage,2021/02/11 20:00:00+00,6321,12,11.71,25474,44,40.14,62,2,0.29,56,51.86,274,3214,2833,70599,,16.62778037,13.97837834,2.84981525,4.11174882,4.75114542,16.96037624,17.6,5.3,7.7,8.9,4186236048.15234,274542.268386366
4505,County,55021,Columbia,2021/02/11 20:00:00+00,4934,13,8.29,25906,60,38.14,47,1,0.14,73,46.43,259,2911,1764,56954,,17.92991178,21.03220995,4.72894373,8.39631758,8.12806802,16.96037624,17.6,5.3,7.7,8.9,3915273409.10547,306650.90492624
4510,County,55017,Chippewa,2021/02/11 20:00:00+00,6944,12,10.43,27456,84,51,87,0,0.43,96,61.43,213,3790,2941,63635,,17.52880723,16.66934272,6.48014542,5.8760884,8.03387845,16.96037624,17.6,5.3,7.7,8.9,5406849245.54297,303010.478701697
4514,County,55071,Manitowoc,2021/02/11 20:00:00+00,7125,26,13.86,28465,86,56.71,61,0,0.14,112,70.57,335,4403,2387,79407,,20.65317617,21.20381022,3.61995848,6.97029919,7.85154144,16.96037624,17.6,5.3,7.7,8.9,2994195852.82812,237749.980283173
4515,County,55141,Wood,2021/02/11 20:00:00+00,6583,22,14.71,29281,100,56.14,72,0,0.57,122,70.86,252,3446,2885,73274,,21.00748386,19.13191078,6.01011244,8.54576848,6.79474014,16.96037624,17.6,5.3,7.7,8.9,4114304657.85938,268062.955675583
4523,County,55109,St. Croix,2021/02/11 20:00:00+00,6240,14,8.43,33278,79,68.71,42,0,0.14,93,77.14,250,3854,2136,87917,,12.88094455,14.09219928,3.9474925,9.42986779,7.82159293,16.96037624,17.6,5.3,7.7,8.9,3814789253.19531,258501.063582408
4524,County,55111,Sauk,2021/02/11 20:00:00+00,5164,11,7.43,33797,58,24.86,38,1,0.14,69,32.29,202,3052,1910,63596,,18.13164024,17.57997422,7.31477167,8.33061932,11.01270792,16.96037624,17.6,5.3,7.7,8.9,4171491059.89453,298769.80494881
4525,County,55055,Jefferson,2021/02/11 20:00:00+00,7727,14,14.14,34039,96,54.86,74,0,0.43,110,69,331,4724,2672,84652,,16.35665781,17.76599964,5.43851129,6.87194633,6.61364675,16.96037624,17.6,5.3,7.7,8.9,2825025965.54688,212352.801370399
4533,County,55089,Ozaukee,2021/02/11 20:00:00+00,7503,21,13.29,38492,117,67,73,1,0.14,138,80.29,358,2631,4514,88284,,19.62879131,7.85395018,2.839996,7.67735279,9.94915138,16.96037624,17.6,5.3,7.7,8.9,1154501050.85156,164208.192847601
4534,County,55027,Dodge,2021/02/11 20:00:00+00,11297,18,13.57,39238,84,57.43,154,0,1,102,71,572,6649,4076,87776,,18.34650524,22.5630591,5.86969757,9.72136178,11.86503308,16.96037624,17.6,5.3,7.7,8.9,4454479279.33984,269209.779551748
4535,County,55127,Walworth,2021/02/11 20:00:00+00,8719,12,9.29,39292,73,58.29,124,0,0.57,85,67.57,299,3107,5313,103013,,17.17487697,19.06515777,7.48654409,7.10272968,8.59024893,16.96037624,17.6,5.3,7.7,8.9,2763384637.44141,210736.578342363
4538,County,55039,Fond du Lac,2021/02/11 20:00:00+00,11760,22,18.29,42168,104,81.14,88,0,0.57,126,99.43,569,8108,3083,102315,,18.8308359,17.14901714,4.29739658,6.44670854,8.30969711,16.96037624,17.6,5.3,7.7,8.9,3802861865.14844,283003.692125901
4542,County,55117,Sheboygan,2021/02/11 20:00:00+00,12621,41,16.43,44147,159,87.29,125,0,0.43,200,103.71,469,6096,6056,115205,,18.13386893,14.41187031,5.62474379,7.22321063,8.34077339,16.96037624,17.6,5.3,7.7,8.9,2567522883.65625,201754.33473565
4544,County,55035,Eau Claire,2021/02/11 20:00:00+00,10815,17,20.43,46592,117,90.86,104,0,0.86,134,111.29,345,8208,2262,102991,,16.24114371,16.33314614,6.56706283,4.7010322,8.12684418,16.96037624,17.6,5.3,7.7,8.9,3310809448.64844,243677.80748982
4547,County,55073,Marathon,2021/02/11 20:00:00+00,13449,22,11.57,47735,119,82.43,170,0,0.14,141,94,594,10548,2307,135264,,17.1313854,19.02095822,5.2381413,9.1850309,9.36457612,16.96037624,17.6,5.3,7.7,8.9,8136851424.80859,380326.051886703
4549,County,55063,La Crosse,2021/02/11 20:00:00+00,11996,17,21.86,50514,145,124.43,75,0,0.14,162,146.29,339,2661,8996,117850,,17.26737258,15.54077866,3.43153191,5.11949414,6.45421565,16.96037624,17.6,5.3,7.7,8.9,2395109885.23828,223679.773903047
4550,County,55131,Washington,2021/02/11 20:00:00+00,13541,34,22,50608,116,90.86,128,0,0.57,150,112.86,430,4360,8751,134535,,17.58398644,15.58052681,3.1170301,7.57901086,6.92660336,16.96037624,17.6,5.3,7.7,8.9,2136042605.42969,191060.862299458
4558,County,55059,Kenosha,2021/02/11 20:00:00+00,14546,33,23.29,69259,168,113.14,286,-1,0.86,201,136.43,801,5104,8641,168330,,13.65087291,19.93967101,6.2667304,9.03203128,7.88875491,16.96037624,17.6,5.3,7.7,8.9,1330533450.07812,167453.514839121
4559,County,55105,Rock,2021/02/11 20:00:00+00,14086,52,28.71,70312,201,148.43,148,0,0.43,253,177.14,660,9397,4029,161769,,16.49705176,20.28821246,5.79108365,9.61905138,11.38210431,16.96037624,17.6,5.3,7.7,8.9,3480473693.03906,236911.643053941
4560,County,55139,Winnebago,2021/02/11 20:00:00+00,16767,44,19.29,75979,244,142.71,176,0,0.86,288,162,660,7430,8677,169926,,16.4399093,19.27707767,4.44382751,6.41195861,8.24447332,16.96037624,17.6,5.3,7.7,8.9,2903345538.52734,215715.561516527
4561,County,55087,Outagamie,2021/02/11 20:00:00+00,18830,55,36.71,79848,302,200.86,186,0,0.43,357,237.57,653,11145,7032,184754,,14.85854189,15.37704767,3.11750496,6.53678312,9.05116442,16.96037624,17.6,5.3,7.7,8.9,3272866762,229909.836608016
4563,County,55101,Racine,2021/02/11 20:00:00+00,20077,26,22.14,95945,134,98,314,2,2,160,120.14,1157,15489,3431,195398,,16.37248374,17.41763508,8.06029014,7.45863345,10.73895045,16.96037624,17.6,5.3,7.7,8.9,1636226363.61719,185702.998602
4565,County,55009,Brown,2021/02/11 20:00:00+00,29792,56,33.43,123630,243,188.57,202,2,0.57,299,222,1089,19717,8986,259786,,14.70715902,15.93419057,4.55355953,7.63443514,9.79779928,16.96037624,17.6,5.3,7.7,8.9,2721387258.97266,331857.050826981
4574,County,55133,Waukesha,2021/02/11 20:00:00+00,39832,97,61,162921,386,321.43,466,2,2,483,382.43,1743,18021,20068,398879,,18.65433146,14.17052622,4.84689171,6.9748383,8.51723936,16.96037624,17.6,5.3,7.7,8.9,2814107356.61719,212117.252527239
4579,County,55025,Dane,2021/02/11 20:00:00+00,39039,133,95.29,316434,581,395.29,264,0,1.14,714,490.57,1183,20682,17174,529843,,13.85232812,12.30597488,3.02620105,5.15192178,5.57717937,16.96037624,17.6,5.3,7.7,8.9,6008234736.25,317640.121443263
4580,County,55079,Milwaukee,2021/02/11 20:00:00+00,96665,181,138.14,443138,940,678.86,1185,1,1.57,1121,817,6095,50401,40169,954209,,13.37488711,20.53347109,6.1515252,7.50593708,9.81624438,16.96037624,17.6,5.3,7.7,8.9,1174955788.30078,169451.932844148
