﻿OBJECTID,GEO,GEOID,NAME,DATE,POSITIVE,POS_NEW,POS_7DAYAVG,NEGATIVE,NEG_NEW,NEG_7DAYAVG,DEATHS,DTH_NEW,DTH_7DAYAVG,TEST_NEW,TEST_7DAYAVG,HOSP_YES,HOSP_NO,HOSP_UNK,POP,POP_MOE,PCT_POP_65,PCT_SMK,PCT_COPD,PCT_CVD,PCT_DIAB,POP_65_WI,SMK_WI,COPD_WI,CVD_WI,DIAB_WI,ShapeSTArea,ShapeSTLength
2889,County,55037,Florence,2021/03/08 20:00:00+00,421,-1,-1.86,1592,0,1.71,12,0,0,-1,-0.14,29,258,134,4337,,26.28364623,16.17727162,6.27494081,6.07138256,10.27061289,16.96037624,17.6,5.3,7.7,8.9,2653589283.87109,265968.749079438
3584,County,55051,Iron,2021/03/08 20:00:00+00,552,0,1.57,2508,1,4.14,21,0,0.14,1,5.71,40,396,116,5715,,29.87679671,20.62390805,4.0121043,12.84563614,15.0328012,16.96037624,17.6,5.3,7.7,8.9,4347466103.02344,350332.064493818
3786,County,55091,Pepin,2021/03/08 20:00:00+00,806,0,0,3015,1,2.43,7,0,0,1,2.43,34,630,142,7262,,23.00993332,11.4559847,4.13192566,6.38437372,15.50916886,16.96037624,17.6,5.3,7.7,8.9,1269788303.57031,219100.920125218
3935,County,55078,Menominee,2021/03/08 20:00:00+00,795,0,0,3736,0,-4.14,11,0,0,0,-4.14,55,706,34,4579,,14.28571429,40.37114921,6.14303645,12.30542968,15.27983195,16.96037624,17.6,5.3,7.7,8.9,1890791657.98438,192847.120513515
3990,County,55041,Forest,2021/03/08 20:00:00+00,925,0,0,4190,-1,3.29,23,0,0,-1,3.29,50,697,178,9018,,22.90350686,23.63519198,12.42323884,14.72031762,12.33999521,16.96037624,17.6,5.3,7.7,8.9,5548910035.63672,367390.044299084
4052,County,55107,Rusk,2021/03/08 20:00:00+00,1266,0,1.86,4887,2,8.57,16,0,0,2,10.43,85,530,651,14183,,24.98279895,19.02330259,4.07433656,12.33045385,7.43590395,16.96037624,17.6,5.3,7.7,8.9,4902668220.77734,302007.708227095
4074,County,55011,Buffalo,2021/03/08 20:00:00+00,1321,0,0.29,5248,3,2.86,7,0,0,3,3.14,56,894,371,13167,,22.55533348,17.43654247,4.68139546,13.88711184,12.26226124,16.96037624,17.6,5.3,7.7,8.9,3597712790.89844,297407.68256364
4089,County,55099,Price,2021/03/08 20:00:00+00,1168,3,1.57,5428,8,8.43,7,0,0,11,10,89,361,718,13490,,27.0495365,22.77521406,4.80402011,12.9850755,10.80710614,16.96037624,17.6,5.3,7.7,8.9,6780339385.17969,333290.631711126
4104,County,55119,Taylor,2021/03/08 20:00:00+00,1769,2,-4.43,5774,6,8.71,21,0,0,8,4.29,61,1195,513,20356,,19.16423712,19.47267295,3.99476465,10.12266496,9.94312786,16.96037624,17.6,5.3,7.7,8.9,5137786729.77734,306881.556921938
4111,County,55013,Burnett,2021/03/08 20:00:00+00,1211,2,0.71,6033,5,8,23,0,0,7,8.71,92,741,378,15258,,27.40985305,22.07846742,4.93122065,13.67118097,11.52749936,16.96037624,17.6,5.3,7.7,8.9,4697324770.76562,366429.962364556
4112,County,55077,Marquette,2021/03/08 20:00:00+00,1313,0,0.86,6041,3,5.86,21,0,0,3,6.71,71,1236,6,15207,,25.49096111,18.77422808,9.6334782,12.26562457,12.92064863,16.96037624,17.6,5.3,7.7,8.9,2311411063.83984,209578.088698761
4130,County,55129,Washburn,2021/03/08 20:00:00+00,1304,1,1.29,6382,10,9,18,0,0,11,10.29,92,635,577,15689,,26.38617296,22.26168394,6.83641807,7.0461038,13.47003096,16.96037624,17.6,5.3,7.7,8.9,4562524359.33203,279035.940438149
4132,County,55065,Lafayette,2021/03/08 20:00:00+00,1464,0,0.14,6385,8,9.86,6,0,-0.14,8,10,72,677,715,16735,,17.27181188,12.87341217,4.33689961,6.1111729,11.40157919,16.96037624,17.6,5.3,7.7,8.9,3040069325.83594,224068.397447375
4154,County,55007,Bayfield,2021/03/08 20:00:00+00,1059,0,-1,6712,6,7.71,19,0,0,6,6.71,47,407,605,14992,,28.96606156,18.18902776,6.46685606,7.09582711,7.29118377,16.96037624,17.6,5.3,7.7,8.9,8273016941.5625,516531.049687877
4163,County,55003,Ashland,2021/03/08 20:00:00+00,1175,0,0.14,6840,6,7.14,16,0,0,6,7.29,52,158,965,15712,,19.85122612,23.86375811,5.73247984,10.06849388,9.76662023,16.96037624,17.6,5.3,7.7,8.9,5727268628.4375,770460.66048926
4166,County,55067,Langlade,2021/03/08 20:00:00+00,1937,0,0.43,6926,6,11.43,32,0,0,6,11.86,99,1784,54,19164,,23.78520504,17.9848559,8.74188569,14.19843444,11.18167454,16.96037624,17.6,5.3,7.7,8.9,4641061434.01562,313904.728666485
4184,County,55061,Kewaunee,2021/03/08 20:00:00+00,2414,0,0,7228,2,9.14,27,0,0,2,9.14,91,1636,687,20360,,20.05909707,11.3949457,5.58328859,6.40456206,8.26731291,16.96037624,17.6,5.3,7.7,8.9,1752585405.05859,181360.438161601
4197,County,55023,Crawford,2021/03/08 20:00:00+00,1668,0,0,7427,4,4.57,17,0,0,4,4.57,83,698,887,16288,,24.07127756,25.96850846,10.39956947,8.10619583,9.54657239,16.96037624,17.6,5.3,7.7,8.9,2924582956.78125,249753.829404911
4212,County,55047,Green Lake,2021/03/08 20:00:00+00,1521,0,-0.57,7642,2,9.57,18,0,0,2,9,83,775,663,18757,,23.622171,27.31916295,4.4148048,11.56618081,8.49430878,16.96037624,17.6,5.3,7.7,8.9,1890481766.15625,197190.537648725
4222,County,55001,Adams,2021/03/08 20:00:00+00,1593,2,1.71,7819,-1,10.14,10,0,0,1,11.86,84,855,654,20073,,28.97292022,22.24978168,13.41742832,19.20308289,17.09789897,16.96037624,17.6,5.3,7.7,8.9,3438449806.70312,287039.236701814
4228,County,55103,Richland,2021/03/08 20:00:00+00,1293,0,0.71,7981,6,-13,15,0,0.14,6,-12.29,76,1014,203,17539,,21.64634146,15.37566547,8.20298246,9.44983105,6.47662427,16.96037624,17.6,5.3,7.7,8.9,2889986695.23047,230442.64455316
4236,County,55113,Sawyer,2021/03/08 20:00:00+00,1533,1,2.29,8185,4,9.71,22,0,0.14,5,12,76,1029,428,16370,,25.77101817,26.84326215,6.60184284,10.09751532,8.87566867,16.96037624,17.6,5.3,7.7,8.9,7214509140.28125,360171.461103356
4256,County,55125,Vilas,2021/03/08 20:00:00+00,2156,0,2.29,8633,2,14.86,38,0,0.29,2,17.14,125,1270,761,21593,,29.77465829,20.42129663,9.26864139,12.67771608,12.1203435,16.96037624,17.6,5.3,7.7,8.9,5471535427.30859,360890.554534532
4272,County,55053,Jackson,2021/03/08 20:00:00+00,2584,0,1.29,9273,0,2.86,23,0,0,0,4.14,88,773,1723,20506,,20.52361595,19.83162523,10.84690333,7.19877302,9.67178115,16.96037624,17.6,5.3,7.7,8.9,5063064807.78125,355587.792174688
4308,County,55019,Clark,2021/03/08 20:00:00+00,3159,0,0.57,10444,8,16.14,57,0,0,8,16.71,229,2753,177,34491,,17.29944446,16.15990599,7.13812197,3.76249131,7.64311868,16.96037624,17.6,5.3,7.7,8.9,6255341804.70312,326265.465979257
4312,County,55069,Lincoln,2021/03/08 20:00:00+00,2918,1,1.29,10492,7,14.43,59,0,0.14,8,15.71,118,1793,1007,27848,,22.12221363,23.77341735,6.57135449,14.09132224,7.4689114,16.96037624,17.6,5.3,7.7,8.9,4752866679.56641,275268.903726118
4319,County,55137,Waushara,2021/03/08 20:00:00+00,2106,0,1.14,10649,3,1.14,32,0,0.14,3,2.29,123,1192,791,24116,,23.61511235,30.98409506,8.44363951,11.11324362,11.64368145,16.96037624,17.6,5.3,7.7,8.9,3203281170.625,239611.363862821
4323,County,55049,Iowa,2021/03/08 20:00:00+00,1883,0,3.57,10857,4,14.14,10,0,0.14,4,17.71,73,843,967,23620,,18.2108492,12.67133605,5.30731296,6.05865792,9.77820817,16.96037624,17.6,5.3,7.7,8.9,3720940924.01172,261542.141247622
4347,County,55121,Trempealeau,2021/03/08 20:00:00+00,3405,0,1.71,11915,5,14.86,37,0,0.14,5,16.57,101,1466,1838,29438,,18.33151507,18.34090142,6.59544115,8.86041484,10.42456346,16.96037624,17.6,5.3,7.7,8.9,3752945297.70703,313837.647781854
4359,County,55123,Vernon,2021/03/08 20:00:00+00,1842,1,1.57,12516,10,-3.71,38,0,0.29,11,-2.14,71,928,843,30516,,19.40436491,18.97032656,5.59015549,6.48540837,8.24682918,16.96037624,17.6,5.3,7.7,8.9,4031951200.36719,305596.120070778
4390,County,55029,Door,2021/03/08 20:00:00+00,2428,0,1.43,13827,-1,11.14,20,0,0,-1,12.57,83,527,1818,27439,,29.25029411,10.72315606,3.24541969,11.29897678,13.56038636,16.96037624,17.6,5.3,7.7,8.9,2521368817.16797,677955.026268376
4402,County,55057,Juneau,2021/03/08 20:00:00+00,2992,3,1.14,14475,14,-3,19,0,0,17,-1.86,145,856,1991,26419,,21.66641891,29.32291596,4.00853992,12.26053847,8.49558053,16.96037624,17.6,5.3,7.7,8.9,4020998381.36328,337622.596943843
4405,County,55085,Oneida,2021/03/08 20:00:00+00,3418,2,5.29,14665,7,14,69,0,0.29,9,19.29,169,1440,1809,35345,,25.90148414,18.63932834,6.9042275,9.49114516,9.294129,16.96037624,17.6,5.3,7.7,8.9,6566178133.62891,372653.775626682
4428,County,55093,Pierce,2021/03/08 20:00:00+00,3503,4,3.71,16270,5,18.57,33,0,0,9,22.29,120,2350,1033,41603,,14.02425844,13.97356783,4.68974582,7.49678807,9.05044219,16.96037624,17.6,5.3,7.7,8.9,3035527920.54688,232701.849894899
4430,County,55045,Green,2021/03/08 20:00:00+00,3192,2,6.43,16365,16,22.14,16,0,0,18,28.57,162,2281,749,36864,,18.37836372,10.34528473,5.56913884,10.79049601,11.94327719,16.96037624,17.6,5.3,7.7,8.9,2802746926.62891,212054.042949137
4431,County,55083,Oconto,2021/03/08 20:00:00+00,4286,0,3.29,16515,8,19.71,48,0,0,8,23,201,3580,505,37556,,19.4747379,16.69607184,5.52454603,10.80684821,14.19632973,16.96037624,17.6,5.3,7.7,8.9,5272721828.58594,438930.708423251
4439,County,55115,Shawano,2021/03/08 20:00:00+00,4603,0,1.43,16963,5,12.71,70,0,0,5,14.14,192,3434,977,41009,,21.64808531,17.11124847,4.72109959,6.84776744,10.72457941,16.96037624,17.6,5.3,7.7,8.9,4676549354.62109,357954.859127478
4454,County,55075,Marinette,2021/03/08 20:00:00+00,3970,0,-1.57,18149,5,14.57,63,0,0,5,13,225,2562,1183,40537,,24.06810299,21.91945681,7.45897745,6.03516482,8.75925893,16.96037624,17.6,5.3,7.7,8.9,7503690030.89844,552940.77206864
4456,County,55033,Dunn,2021/03/08 20:00:00+00,4283,0,2.71,18305,12,18,29,0,0.14,12,20.71,141,2208,1934,44498,,16.4727427,15.0202334,3.31707998,3.94436234,8.16904953,16.96037624,17.6,5.3,7.7,8.9,4466794838.08594,277720.579072528
4460,County,55081,Monroe,2021/03/08 20:00:00+00,4339,1,3,18469,8,21.57,33,0,0.29,9,24.57,152,2695,1492,45502,,17.5007609,22.39489241,6.19989065,11.84072478,10.4181093,16.96037624,17.6,5.3,7.7,8.9,4538125145.30078,281587.995266496
4461,County,55031,Douglas,2021/03/08 20:00:00+00,3653,1,-3.14,18589,11,31,27,0,0.14,12,27.86,131,2738,784,43402,,18.27278115,23.68174354,10.70285283,10.9384054,9.69648157,16.96037624,17.6,5.3,7.7,8.9,7316905731.48047,374792.754627018
4464,County,55095,Polk,2021/03/08 20:00:00+00,3964,1,5.29,18816,6,27.29,43,0,-0.14,7,32.57,126,2145,1693,43349,,19.59908884,15.11612319,4.28335734,5.99569645,11.27644808,16.96037624,17.6,5.3,7.7,8.9,5034134782.13672,339213.269564856
4465,County,55005,Barron,2021/03/08 20:00:00+00,5430,4,9,18894,12,20.43,76,0,0,16,29.43,238,3074,2118,45252,,22.95117698,22.41198037,5.27764599,9.44121086,10.2081161,16.96037624,17.6,5.3,7.7,8.9,4677777581.72266,273518.663059626
4473,County,55135,Waupaca,2021/03/08 20:00:00+00,4751,0,-5.86,20138,16,28.43,111,0,-0.14,16,22.57,250,2359,2142,51444,,23.89862945,20.71741115,6.08122362,11.27545802,9.26157142,16.96037624,17.6,5.3,7.7,8.9,3892220630.02734,273669.552662916
4477,County,55015,Calumet,2021/03/08 20:00:00+00,5487,2,2,20739,30,35.14,43,0,0,32,37.14,235,3263,1989,49807,,14.22604709,10.34834806,2.26506411,8.35475356,7.62046076,16.96037624,17.6,5.3,7.7,8.9,1993435150.45703,189266.428044386
4487,County,55043,Grant,2021/03/08 20:00:00+00,4673,1,3.14,22926,4,19.71,81,0,0.14,5,22.86,236,2223,2214,51828,,18.72493986,17.92943868,4.12869234,8.98792174,8.53185505,16.96037624,17.6,5.3,7.7,8.9,5694522989.98828,337205.794874345
4501,County,55097,Portage,2021/03/08 20:00:00+00,6495,0,2.57,26307,14,18.57,64,0,0,14,21.14,287,3331,2877,70599,,16.62778037,13.97837834,2.84981525,4.11174882,4.75114542,16.96037624,17.6,5.3,7.7,8.9,4186236048.15234,274542.268386366
4503,County,55021,Columbia,2021/03/08 20:00:00+00,5081,7,5.57,26675,23,13.29,54,0,0.43,30,18.86,277,3008,1796,56954,,17.92991178,21.03220995,4.72894373,8.39631758,8.12806802,16.96037624,17.6,5.3,7.7,8.9,3915273409.10547,306650.90492624
4510,County,55017,Chippewa,2021/03/08 20:00:00+00,7082,2,5.43,28663,7,36.71,93,0,0.14,9,42.14,225,3888,2969,63635,,17.52880723,16.66934272,6.48014542,5.8760884,8.03387845,16.96037624,17.6,5.3,7.7,8.9,5406849245.54297,303010.478701697
4514,County,55071,Manitowoc,2021/03/08 20:00:00+00,7260,0,3,29791,24,29.57,64,0,0,24,32.57,353,4528,2379,79407,,20.65317617,21.20381022,3.61995848,6.97029919,7.85154144,16.96037624,17.6,5.3,7.7,8.9,2994195852.82812,237749.980283173
4516,County,55141,Wood,2021/03/08 20:00:00+00,6696,3,-0.71,30637,19,47.14,74,0,0.14,22,46.43,256,3549,2891,73274,,21.00748386,19.13191078,6.01011244,8.54576848,6.79474014,16.96037624,17.6,5.3,7.7,8.9,4114304657.85938,268062.955675583
4523,County,55111,Sauk,2021/03/08 20:00:00+00,5325,2,5.43,34511,22,16.57,42,0,0.14,24,22,209,3128,1988,63596,,18.13164024,17.57997422,7.31477167,8.33061932,11.01270792,16.96037624,17.6,5.3,7.7,8.9,4171491059.89453,298769.80494881
4524,County,55109,St. Croix,2021/03/08 20:00:00+00,6456,2,8.86,34696,20,46,43,0,0,22,54.86,266,4136,2054,87917,,12.88094455,14.09219928,3.9474925,9.42986779,7.82159293,16.96037624,17.6,5.3,7.7,8.9,3814789253.19531,258501.063582408
4525,County,55055,Jefferson,2021/03/08 20:00:00+00,7928,7,7.29,35107,49,34.57,113,0,0.29,56,41.86,358,4866,2704,84652,,16.35665781,17.76599964,5.43851129,6.87194633,6.61364675,16.96037624,17.6,5.3,7.7,8.9,2825025965.54688,212352.801370399
4533,County,55089,Ozaukee,2021/03/08 20:00:00+00,7657,3,3.43,40197,26,53.29,80,0,0.43,29,56.71,374,2669,4614,88284,,19.62879131,7.85395018,2.839996,7.67735279,9.94915138,16.96037624,17.6,5.3,7.7,8.9,1154501050.85156,164208.192847601
4534,County,55027,Dodge,2021/03/08 20:00:00+00,11466,5,7,40303,17,28.86,157,0,0.29,22,35.86,607,6819,4040,87776,,18.34650524,22.5630591,5.86969757,9.72136178,11.86503308,16.96037624,17.6,5.3,7.7,8.9,4454479279.33984,269209.779551748
4535,County,55127,Walworth,2021/03/08 20:00:00+00,8875,0,5.43,40578,13,41.29,129,0,0.29,13,46.71,319,3204,5352,103013,,17.17487697,19.06515777,7.48654409,7.10272968,8.59024893,16.96037624,17.6,5.3,7.7,8.9,2763384637.44141,210736.578342363
4539,County,55039,Fond du Lac,2021/03/08 20:00:00+00,11975,1,-1.29,44276,24,56.14,97,0,0.57,25,54.86,608,8410,2957,102315,,18.8308359,17.14901714,4.29739658,6.44670854,8.30969711,16.96037624,17.6,5.3,7.7,8.9,3802861865.14844,283003.692125901
4542,County,55117,Sheboygan,2021/03/08 20:00:00+00,12987,11,10.43,46285,50,56.43,132,0,0.57,61,66.86,513,6322,6152,115205,,18.13386893,14.41187031,5.62474379,7.22321063,8.34077339,16.96037624,17.6,5.3,7.7,8.9,2567522883.65625,201754.33473565
4544,County,55035,Eau Claire,2021/03/08 20:00:00+00,11046,0,5.29,48682,15,68,105,0,0.14,15,73.29,356,8433,2257,102991,,16.24114371,16.33314614,6.56706283,4.7010322,8.12684418,16.96037624,17.6,5.3,7.7,8.9,3310809448.64844,243677.80748982
4547,County,55073,Marathon,2021/03/08 20:00:00+00,13707,7,2.14,49806,74,83,181,0,0.71,81,85.14,620,10786,2301,135264,,17.1313854,19.02095822,5.2381413,9.1850309,9.36457612,16.96037624,17.6,5.3,7.7,8.9,8136851424.80859,380326.051886703
4548,County,55131,Washington,2021/03/08 20:00:00+00,13855,2,14.57,52781,43,76,135,0,0.14,45,90.57,459,4447,8949,134535,,17.58398644,15.58052681,3.1170301,7.57901086,6.92660336,16.96037624,17.6,5.3,7.7,8.9,2136042605.42969,191060.862299458
4550,County,55063,La Crosse,2021/03/08 20:00:00+00,12291,0,8.43,53525,61,81.14,80,0,0.29,61,89.57,372,2761,9158,117850,,17.26737258,15.54077866,3.43153191,5.11949414,6.45421565,16.96037624,17.6,5.3,7.7,8.9,2395109885.23828,223679.773903047
4558,County,55059,Kenosha,2021/03/08 20:00:00+00,14823,1,-0.14,71871,37,68.14,301,0,0.14,38,68,843,5175,8805,168330,,13.65087291,19.93967101,6.2667304,9.03203128,7.88875491,16.96037624,17.6,5.3,7.7,8.9,1330533450.07812,167453.514839121
4559,County,55105,Rock,2021/03/08 20:00:00+00,14485,3,11.43,73312,59,85.86,159,0,0,62,97.29,709,9687,4089,161769,,16.49705176,20.28821246,5.79108365,9.61905138,11.38210431,16.96037624,17.6,5.3,7.7,8.9,3480473693.03906,236911.643053941
4560,County,55139,Winnebago,2021/03/08 20:00:00+00,17136,12,10.86,79997,85,79,183,0,0,97,89.86,698,7787,8651,169926,,16.4399093,19.27707767,4.44382751,6.41195861,8.24447332,16.96037624,17.6,5.3,7.7,8.9,2903345538.52734,215715.561516527
4561,County,55087,Outagamie,2021/03/08 20:00:00+00,19402,11,16.43,84309,106,146.43,197,0,0.29,117,162.86,686,11466,7250,184754,,14.85854189,15.37704767,3.11750496,6.53678312,9.05116442,16.96037624,17.6,5.3,7.7,8.9,3272866762,229909.836608016
4563,County,55101,Racine,2021/03/08 20:00:00+00,20384,0,5.29,97835,54,-9.71,323,0,0.43,54,-4.43,1207,15721,3456,195398,,16.37248374,17.41763508,8.06029014,7.45863345,10.73895045,16.96037624,17.6,5.3,7.7,8.9,1636226363.61719,185702.998602
4565,County,55009,Brown,2021/03/08 20:00:00+00,30299,11,15.29,128006,82,152.57,222,0,-0.14,93,167.86,1173,20273,8853,259786,,14.70715902,15.93419057,4.55355953,7.63443514,9.79779928,16.96037624,17.6,5.3,7.7,8.9,2721387258.97266,331857.050826981
4574,County,55133,Waukesha,2021/03/08 20:00:00+00,40927,0,39.14,170261,152,257.71,487,0,0.71,152,296.86,1831,18902,20194,398879,,18.65433146,14.17052622,4.84689171,6.9748383,8.51723936,16.96037624,17.6,5.3,7.7,8.9,2814107356.61719,212117.252527239
4579,County,55025,Dane,2021/03/08 20:00:00+00,40973,29,57.43,324141,248,286.86,278,0,0.71,277,344.29,1256,22233,17484,529843,,13.85232812,12.30597488,3.02620105,5.15192178,5.57717937,16.96037624,17.6,5.3,7.7,8.9,6008234736.25,317640.121443263
4580,County,55079,Milwaukee,2021/03/08 20:00:00+00,98727,26,66.86,460325,274,509.29,1244,0,1,300,576.14,6371,53846,38510,954209,,13.37488711,20.53347109,6.1515252,7.50593708,9.81624438,16.96037624,17.6,5.3,7.7,8.9,1174955788.30078,169451.932844148
