﻿GEO,NAME,POSITIVE,NEGATIVE,DEATHS,OBJECTID,GEOID,POP,LoadDttm,PCT_POP_65,PCT_SMK,PCT_COPD,PCT_CVD,PCT_DIAB,POP_65_WI,SMK_WI,COPD_WI,CVD_WI,DIAB_WI,DATE,Shape__Area,Shape__Length
County,Sauk,319,11613,3,1,55111,63596,2020/07/29 19:00:00+00,18.13164024,17.57997422,7.31477167,8.33061932,11.01270792,16.96037624,17.6,5.3,7.7,8.9,2020/07/29 14:00:00+00,4171491059.89453,298769.80494881
County,Pierce,159,4279,0,2,55093,41603,2020/07/29 19:00:00+00,14.02425844,13.97356783,4.68974582,7.49678807,9.05044219,16.96037624,17.6,5.3,7.7,8.9,2020/07/29 14:00:00+00,3035527920.54688,232701.8498949
County,La Crosse,762,16288,1,3,55063,117850,2020/07/29 19:00:00+00,17.26737258,15.54077866,3.43153191,5.11949414,6.45421565,16.96037624,17.6,5.3,7.7,8.9,2020/07/29 14:00:00+00,2395109885.23828,223679.773903046
County,Dunn,98,5118,0,4,55033,44498,2020/07/29 19:00:00+00,16.4727427,15.0202334,3.31707998,3.94436234,8.16904953,16.96037624,17.6,5.3,7.7,8.9,2020/07/29 14:00:00+00,4466794838.08594,277720.579072528
County,Jackson,43,4903,1,5,55053,20506,2020/07/29 19:00:00+00,20.52361595,19.83162523,10.84690333,7.19877302,9.67178115,16.96037624,17.6,5.3,7.7,8.9,2020/07/29 14:00:00+00,5063064807.78125,355587.792174689
County,Green Lake,50,2256,0,6,55047,18757,2020/07/29 19:00:00+00,23.622171,27.31916295,4.4148048,11.56618081,8.49430878,16.96037624,17.6,5.3,7.7,8.9,2020/07/29 14:00:00+00,1890481766.15625,197190.537648725
County,Walworth,1103,13697,21,7,55127,103013,2020/07/29 19:00:00+00,17.17487697,19.06515777,7.48654409,7.10272968,8.59024893,16.96037624,17.6,5.3,7.7,8.9,2020/07/29 14:00:00+00,2763384637.44141,210736.578342363
County,Vernon,51,3540,0,8,55123,30516,2020/07/29 19:00:00+00,19.40436491,18.97032656,5.59015549,6.48540837,8.24682918,16.96037624,17.6,5.3,7.7,8.9,2020/07/29 14:00:00+00,4031951200.36719,305596.120070778
County,Kenosha,2341,25436,51,9,55059,168330,2020/07/29 19:00:00+00,13.65087291,19.93967101,6.2667304,9.03203128,7.88875491,16.96037624,17.6,5.3,7.7,8.9,2020/07/29 14:00:00+00,1330533450.07813,167453.514839121
County,Milwaukee,18769,163551,429,10,55079,954209,2020/07/29 19:00:00+00,13.37488711,20.53347109,6.1515252,7.50593708,9.81624438,16.96037624,17.6,5.3,7.7,8.9,2020/07/29 14:00:00+00,1174955788.30078,169451.932844147
County,Ashland,15,1576,0,11,55003,15712,2020/07/29 19:00:00+00,19.85122612,23.86375811,5.73247984,10.06849388,9.76662023,16.96037624,17.6,5.3,7.7,8.9,2020/07/29 14:00:00+00,5727268628.4375,770460.660489259
County,Oneida,74,4104,0,12,55085,35345,2020/07/29 19:00:00+00,25.90148414,18.63932834,6.9042275,9.49114516,9.294129,16.96037624,17.6,5.3,7.7,8.9,2020/07/29 14:00:00+00,6566178133.62891,372653.775626681
County,Waushara,89,4906,0,13,55137,24116,2020/07/29 19:00:00+00,23.61511235,30.98409506,8.44363951,11.11324362,11.64368145,16.96037624,17.6,5.3,7.7,8.9,2020/07/29 14:00:00+00,3203281170.625,239611.363862821
County,Washburn,14,1674,0,14,55129,15689,2020/07/29 19:00:00+00,26.38617296,22.26168394,6.83641807,7.0461038,13.47003096,16.96037624,17.6,5.3,7.7,8.9,2020/07/29 14:00:00+00,4562524359.33203,279035.940438149
County,Lafayette,101,2079,0,15,55065,16735,2020/07/29 19:00:00+00,17.27181188,12.87341217,4.33689961,6.1111729,11.40157919,16.96037624,17.6,5.3,7.7,8.9,2020/07/29 14:00:00+00,3040069325.83594,224068.397447375
County,Waupaca,334,7083,14,16,55135,51444,2020/07/29 19:00:00+00,23.89862945,20.71741115,6.08122362,11.27545802,9.26157142,16.96037624,17.6,5.3,7.7,8.9,2020/07/29 14:00:00+00,3892220630.02734,273669.552662916
County,Vilas,25,2006,0,17,55125,21593,2020/07/29 19:00:00+00,29.77465829,20.42129663,9.26864139,12.67771608,12.1203435,16.96037624,17.6,5.3,7.7,8.9,2020/07/29 14:00:00+00,5471535427.30859,360890.554534532
County,Ozaukee,494,9774,16,18,55089,88284,2020/07/29 19:00:00+00,19.62879131,7.85395018,2.839996,7.67735279,9.94915138,16.96037624,17.6,5.3,7.7,8.9,2020/07/29 14:00:00+00,1154501050.85156,164208.192847601
County,Sheboygan,558,14256,5,19,55117,115205,2020/07/29 19:00:00+00,18.13386893,14.41187031,5.62474379,7.22321063,8.34077339,16.96037624,17.6,5.3,7.7,8.9,2020/07/29 14:00:00+00,2567522883.65625,201754.33473565
County,Washington,747,12769,22,20,55131,134535,2020/07/29 19:00:00+00,17.58398644,15.58052681,3.1170301,7.57901086,6.92660336,16.96037624,17.6,5.3,7.7,8.9,2020/07/29 14:00:00+00,2136042605.42969,191060.862299458
County,Bayfield,19,1751,1,21,55007,14992,2020/07/29 19:00:00+00,28.96606156,18.18902776,6.46685606,7.09582711,7.29118377,16.96037624,17.6,5.3,7.7,8.9,2020/07/29 14:00:00+00,8273016941.5625,516531.049687875
County,Portage,327,8101,0,22,55097,70599,2020/07/29 19:00:00+00,16.62778037,13.97837834,2.84981525,4.11174882,4.75114542,16.96037624,17.6,5.3,7.7,8.9,2020/07/29 14:00:00+00,4186236048.15234,274542.268386367
County,Fond du Lac,513,13579,6,23,55039,102315,2020/07/29 19:00:00+00,18.8308359,17.14901714,4.29739658,6.44670854,8.30969711,16.96037624,17.6,5.3,7.7,8.9,2020/07/29 14:00:00+00,3802861865.14844,283003.692125901
County,Kewaunee,106,2292,2,24,55061,20360,2020/07/29 19:00:00+00,20.05909707,11.3949457,5.58328859,6.40456206,8.26731291,16.96037624,17.6,5.3,7.7,8.9,2020/07/29 14:00:00+00,1752585405.05859,181360.438161601
County,Langlade,38,1922,1,25,55067,19164,2020/07/29 19:00:00+00,23.78520504,17.9848559,8.74188569,14.19843444,11.18167454,16.96037624,17.6,5.3,7.7,8.9,2020/07/29 14:00:00+00,4641061434.01563,313904.728666484
County,Rock,1325,22501,26,26,55105,161769,2020/07/29 19:00:00+00,16.49705176,20.28821246,5.79108365,9.61905138,11.38210431,16.96037624,17.6,5.3,7.7,8.9,2020/07/29 14:00:00+00,3480473693.03906,236911.643053941
County,Crawford,54,3143,0,27,55023,16288,2020/07/29 19:00:00+00,24.07127756,25.96850846,10.39956947,8.10619583,9.54657239,16.96037624,17.6,5.3,7.7,8.9,2020/07/29 14:00:00+00,2924582956.78125,249753.829404912
County,Eau Claire,448,13222,3,28,55035,102991,2020/07/29 19:00:00+00,16.24114371,16.33314614,6.56706283,4.7010322,8.12684418,16.96037624,17.6,5.3,7.7,8.9,2020/07/29 14:00:00+00,3310809448.64844,243677.80748982
County,Oconto,154,5433,0,29,55083,37556,2020/07/29 19:00:00+00,19.4747379,16.69607184,5.52454603,10.80684821,14.19632973,16.96037624,17.6,5.3,7.7,8.9,2020/07/29 14:00:00+00,5272721828.58594,438930.708423252
County,Forest,57,870,4,30,55041,9018,2020/07/29 19:00:00+00,22.90350686,23.63519198,12.42323884,14.72031762,12.33999521,16.96037624,17.6,5.3,7.7,8.9,2020/07/29 14:00:00+00,5548910035.63672,367390.044299085
County,Sawyer,27,2399,0,31,55113,16370,2020/07/29 19:00:00+00,25.77101817,26.84326215,6.60184284,10.09751532,8.87566867,16.96037624,17.6,5.3,7.7,8.9,2020/07/29 14:00:00+00,7214509140.28125,360171.461103356
County,Trempealeau,281,4557,1,32,55121,29438,2020/07/29 19:00:00+00,18.33151507,18.34090142,6.59544115,8.86041484,10.42456346,16.96037624,17.6,5.3,7.7,8.9,2020/07/29 14:00:00+00,3752945297.70703,313837.647781852
County,Polk,105,5408,2,33,55095,43349,2020/07/29 19:00:00+00,19.59908884,15.11612319,4.28335734,5.99569645,11.27644808,16.96037624,17.6,5.3,7.7,8.9,2020/07/29 14:00:00+00,5034134782.13672,339213.269564855
County,Green,121,4354,1,34,55045,36864,2020/07/29 19:00:00+00,18.37836372,10.34528473,5.56913884,10.79049601,11.94327719,16.96037624,17.6,5.3,7.7,8.9,2020/07/29 14:00:00+00,2802746926.62891,212054.042949137
County,Outagamie,1008,23136,12,35,55087,184754,2020/07/29 19:00:00+00,14.85854189,15.37704767,3.11750496,6.53678312,9.05116442,16.96037624,17.6,5.3,7.7,8.9,2020/07/29 14:00:00+00,3272866762,229909.836608016
County,Adams,65,2271,2,36,55001,20073,2020/07/29 19:00:00+00,28.97292022,22.24978168,13.41742832,19.20308289,17.09789897,16.96037624,17.6,5.3,7.7,8.9,2020/07/29 14:00:00+00,3438449806.70313,287039.236701815
County,Taylor,42,1625,0,37,55119,20356,2020/07/29 19:00:00+00,19.16423712,19.47267295,3.99476465,10.12266496,9.94312786,16.96037624,17.6,5.3,7.7,8.9,2020/07/29 14:00:00+00,5137786729.77734,306881.556921938
County,Marathon,518,11252,4,38,55073,135264,2020/07/29 19:00:00+00,17.1313854,19.02095822,5.2381413,9.1850309,9.36457612,16.96037624,17.6,5.3,7.7,8.9,2020/07/29 14:00:00+00,8136851424.80859,380326.051886703
County,Florence,5,542,0,39,55037,4337,2020/07/29 19:00:00+00,26.28364623,16.17727162,6.27494081,6.07138256,10.27061289,16.96037624,17.6,5.3,7.7,8.9,2020/07/29 14:00:00+00,2653589283.87109,265968.749079438
County,Barron,145,5289,3,40,55005,45252,2020/07/29 19:00:00+00,22.95117698,22.41198037,5.27764599,9.44121086,10.2081161,16.96037624,17.6,5.3,7.7,8.9,2020/07/29 14:00:00+00,4677777581.72266,273518.663059626
County,Iron,68,921,1,41,55051,5715,2020/07/29 19:00:00+00,29.87679671,20.62390805,4.0121043,12.84563614,15.0328012,16.96037624,17.6,5.3,7.7,8.9,2020/07/29 14:00:00+00,4347466103.02344,350332.064493817
County,Monroe,192,6556,1,42,55081,45502,2020/07/29 19:00:00+00,17.5007609,22.39489241,6.19989065,11.84072478,10.4181093,16.96037624,17.6,5.3,7.7,8.9,2020/07/29 14:00:00+00,4538125145.30078,281587.995266496
County,Racine,3011,40335,75,43,55101,195398,2020/07/29 19:00:00+00,16.37248374,17.41763508,8.06029014,7.45863345,10.73895045,16.96037624,17.6,5.3,7.7,8.9,2020/07/29 14:00:00+00,1636226363.61719,185702.998602
County,Shawano,139,5719,0,44,55115,41009,2020/07/29 19:00:00+00,21.64808531,17.11124847,4.72109959,6.84776744,10.72457941,16.96037624,17.6,5.3,7.7,8.9,2020/07/29 14:00:00+00,4676549354.62109,357954.859127478
County,Dodge,634,14620,5,45,55027,87776,2020/07/29 19:00:00+00,18.34650524,22.5630591,5.86969757,9.72136178,11.86503308,16.96037624,17.6,5.3,7.7,8.9,2020/07/29 14:00:00+00,4454479279.33984,269209.779551747
County,Dane,3970,113416,35,46,55025,529843,2020/07/29 19:00:00+00,13.85232812,12.30597488,3.02620105,5.15192178,5.57717937,16.96037624,17.6,5.3,7.7,8.9,2020/07/29 14:00:00+00,6008234736.25,317640.121443262
County,Calumet,224,5284,2,47,55015,49807,2020/07/29 19:00:00+00,14.22604709,10.34834806,2.26506411,8.35475356,7.62046076,16.96037624,17.6,5.3,7.7,8.9,2020/07/29 14:00:00+00,1993435150.45703,189266.428044386
County,Jefferson,535,11848,4,48,55055,84652,2020/07/29 19:00:00+00,16.35665781,17.76599964,5.43851129,6.87194633,6.61364675,16.96037624,17.6,5.3,7.7,8.9,2020/07/29 14:00:00+00,2825025965.54688,212352.801370398
County,Burnett,13,1408,1,49,55013,15258,2020/07/29 19:00:00+00,27.40985305,22.07846742,4.93122065,13.67118097,11.52749936,16.96037624,17.6,5.3,7.7,8.9,2020/07/29 14:00:00+00,4697324770.76563,366429.962364555
County,Chippewa,198,9558,0,50,55017,63635,2020/07/29 19:00:00+00,17.52880723,16.66934272,6.48014542,5.8760884,8.03387845,16.96037624,17.6,5.3,7.7,8.9,2020/07/29 14:00:00+00,5406849245.54297,303010.478701697
County,Douglas,102,4072,0,51,55031,43402,2020/07/29 19:00:00+00,18.27278115,23.68174354,10.70285283,10.9384054,9.69648157,16.96037624,17.6,5.3,7.7,8.9,2020/07/29 14:00:00+00,7316905731.48047,374792.754627019
County,Marquette,67,1723,1,52,55077,15207,2020/07/29 19:00:00+00,25.49096111,18.77422808,9.6334782,12.26562457,12.92064863,16.96037624,17.6,5.3,7.7,8.9,2020/07/29 14:00:00+00,2311411063.83984,209578.088698761
County,Brown,3855,42831,50,53,55009,259786,2020/07/29 19:00:00+00,14.70715902,15.93419057,4.55355953,7.63443514,9.79779928,16.96037624,17.6,5.3,7.7,8.9,2020/07/29 14:00:00+00,2721387258.97266,331857.050826982
County,Richland,22,2523,4,54,55103,17539,2020/07/29 19:00:00+00,21.64634146,15.37566547,8.20298246,9.44983105,6.47662427,16.96037624,17.6,5.3,7.7,8.9,2020/07/29 14:00:00+00,2889986695.23047,230442.64455316
County,Wood,189,8317,1,55,55141,73274,2020/07/29 19:00:00+00,21.00748386,19.13191078,6.01011244,8.54576848,6.79474014,16.96037624,17.6,5.3,7.7,8.9,2020/07/29 14:00:00+00,4114304657.85938,268062.955675582
County,Winnebago,978,23922,16,56,55139,169926,2020/07/29 19:00:00+00,16.4399093,19.27707767,4.44382751,6.41195861,8.24447332,16.96037624,17.6,5.3,7.7,8.9,2020/07/29 14:00:00+00,2903345538.52734,215715.561516527
County,Lincoln,56,2954,0,57,55069,27848,2020/07/29 19:00:00+00,22.12221363,23.77341735,6.57135449,14.09132224,7.4689114,16.96037624,17.6,5.3,7.7,8.9,2020/07/29 14:00:00+00,4752866679.56641,275268.903726118
County,Pepin,41,919,0,58,55091,7262,2020/07/29 19:00:00+00,23.00993332,11.4559847,4.13192566,6.38437372,15.50916886,16.96037624,17.6,5.3,7.7,8.9,2020/07/29 14:00:00+00,1269788303.57031,219100.920125219
County,Iowa,56,3410,0,59,55049,23620,2020/07/29 19:00:00+00,18.2108492,12.67133605,5.30731296,6.05865792,9.77820817,16.96037624,17.6,5.3,7.7,8.9,2020/07/29 14:00:00+00,3720940924.01172,261542.141247621
County,Marinette,257,6385,3,60,55075,40537,2020/07/29 19:00:00+00,24.06810299,21.91945681,7.45897745,6.03516482,8.75925893,16.96037624,17.6,5.3,7.7,8.9,2020/07/29 14:00:00+00,7503690030.89844,552940.772068639
County,Price,18,1710,0,61,55099,13490,2020/07/29 19:00:00+00,27.0495365,22.77521406,4.80402011,12.9850755,10.80710614,16.96037624,17.6,5.3,7.7,8.9,2020/07/29 14:00:00+00,6780339385.17969,333290.631711125
County,Grant,303,8291,14,62,55043,51828,2020/07/29 19:00:00+00,18.72493986,17.92943868,4.12869234,8.98792174,8.53185505,16.96037624,17.6,5.3,7.7,8.9,2020/07/29 14:00:00+00,5694522989.98828,337205.794874344
County,Columbia,204,8748,1,63,55021,56954,2020/07/29 19:00:00+00,17.92991178,21.03220995,4.72894373,8.39631758,8.12806802,16.96037624,17.6,5.3,7.7,8.9,2020/07/29 14:00:00+00,3915273409.10547,306650.90492624
County,Clark,166,3375,7,64,55019,34491,2020/07/29 19:00:00+00,17.29944446,16.15990599,7.13812197,3.76249131,7.64311868,16.96037624,17.6,5.3,7.7,8.9,2020/07/29 14:00:00+00,6255341804.70313,326265.465979256
County,St. Croix,424,9696,2,65,55109,87917,2020/07/29 19:00:00+00,12.88094455,14.09219928,3.9474925,9.42986779,7.82159293,16.96037624,17.6,5.3,7.7,8.9,2020/07/29 14:00:00+00,3814789253.19531,258501.063582408
County,Juneau,114,5633,1,66,55057,26419,2020/07/29 19:00:00+00,21.66641891,29.32291596,4.00853992,12.26053847,8.49558053,16.96037624,17.6,5.3,7.7,8.9,2020/07/29 14:00:00+00,4020998381.36328,337622.596943843
County,Rusk,13,1172,1,67,55107,14183,2020/07/29 19:00:00+00,24.98279895,19.02330259,4.07433656,12.33045385,7.43590395,16.96037624,17.6,5.3,7.7,8.9,2020/07/29 14:00:00+00,4902668220.77734,302007.708227095
County,Waukesha,3284,44936,49,68,55133,398879,2020/07/29 19:00:00+00,18.65433146,14.17052622,4.84689171,6.9748383,8.51723936,16.96037624,17.6,5.3,7.7,8.9,2020/07/29 14:00:00+00,2814107356.61719,212117.252527239
County,Buffalo,40,1555,2,69,55011,13167,2020/07/29 19:00:00+00,22.55533348,17.43654247,4.68139546,13.88711184,12.26226124,16.96037624,17.6,5.3,7.7,8.9,2020/07/29 14:00:00+00,3597712790.89844,297407.682563641
County,Menominee,18,1590,0,70,55078,4579,2020/07/29 19:00:00+00,14.28571429,40.37114921,6.14303645,12.30542968,15.27983195,16.96037624,17.6,5.3,7.7,8.9,2020/07/29 14:00:00+00,1890791657.98438,192847.120513515
County,Manitowoc,272,9399,1,71,55071,79407,2020/07/29 19:00:00+00,20.65317617,21.20381022,3.61995848,6.97029919,7.85154144,16.96037624,17.6,5.3,7.7,8.9,2020/07/29 14:00:00+00,2994195852.82813,237749.980283172
County,Door,82,4010,3,72,55029,27439,2020/07/29 19:00:00+00,29.25029411,10.72315606,3.24541969,11.29897678,13.56038636,16.96037624,17.6,5.3,7.7,8.9,2020/07/29 14:00:00+00,2521368817.16797,677955.026268376
