﻿OBJECTID,GEO,GEOID,NAME,DATE,POSITIVE,POS_NEW,NEGATIVE,NEG_NEW,DEATHS,DTH_NEW,TEST_NEW,HOSP_YES,HOSP_NO,HOSP_UNK,POP,POP_MOE,PCT_POP_65,PCT_SMK,PCT_COPD,PCT_CVD,PCT_DIAB,POP_65_WI,SMK_WI,COPD_WI,CVD_WI,DIAB_WI
772,County,55037,Florence,2020/08/28 14:00:00+00,23,0,723,7,0,0,7,3,12,8,4337,,26.28364623,16.17727162,6.27494081,6.07138256,10.27061289,16.96037624,17.6,5.3,7.7,8.9
1214,County,55091,Pepin,2020/08/28 14:00:00+00,46,-1,1151,8,0,0,7,2,39,5,7262,,23.00993332,11.4559847,4.13192566,6.38437372,15.50916886,16.96037624,17.6,5.3,7.7,8.9
1216,County,55041,Forest,2020/08/28 14:00:00+00,70,3,1164,13,4,0,16,1,35,34,9018,,22.90350686,23.63519198,12.42323884,14.72031762,12.33999521,16.96037624,17.6,5.3,7.7,8.9
1296,County,55051,Iron,2020/08/28 14:00:00+00,119,1,1342,10,1,0,11,4,75,40,5715,,29.87679671,20.62390805,4.0121043,12.84563614,15.0328012,16.96037624,17.6,5.3,7.7,8.9
1354,County,55107,Rusk,2020/08/28 14:00:00+00,24,0,1618,15,1,0,15,4,12,8,14183,,24.98279895,19.02330259,4.07433656,12.33045385,7.43590395,16.96037624,17.6,5.3,7.7,8.9
1387,County,55011,Buffalo,2020/08/28 14:00:00+00,58,0,1927,12,2,0,12,4,51,3,13167,,22.55533348,17.43654247,4.68139546,13.88711184,12.26226124,16.96037624,17.6,5.3,7.7,8.9
1388,County,55078,Menominee,2020/08/28 14:00:00+00,28,0,1932,10,0,0,10,4,22,2,4579,,14.28571429,40.37114921,6.14303645,12.30542968,15.27983195,16.96037624,17.6,5.3,7.7,8.9
1391,County,55003,Ashland,2020/08/28 14:00:00+00,34,0,2009,15,1,0,15,6,8,20,15712,,19.85122612,23.86375811,5.73247984,10.06849388,9.76662023,16.96037624,17.6,5.3,7.7,8.9
1393,County,55013,Burnett,2020/08/28 14:00:00+00,38,-1,2101,60,2,1,59,6,32,0,15258,,27.40985305,22.07846742,4.93122065,13.67118097,11.52749936,16.96037624,17.6,5.3,7.7,8.9
1396,County,55099,Price,2020/08/28 14:00:00+00,36,-1,2141,12,0,0,11,4,7,25,13490,,27.0495365,22.77521406,4.80402011,12.9850755,10.80710614,16.96037624,17.6,5.3,7.7,8.9
1399,County,55119,Taylor,2020/08/28 14:00:00+00,93,3,2224,17,3,0,20,11,71,11,20356,,19.16423712,19.47267295,3.99476465,10.12266496,9.94312786,16.96037624,17.6,5.3,7.7,8.9
1406,County,55129,Washburn,2020/08/28 14:00:00+00,60,1,2370,13,0,0,14,3,54,3,15689,,26.38617296,22.26168394,6.83641807,7.0461038,13.47003096,16.96037624,17.6,5.3,7.7,8.9
1408,County,55007,Bayfield,2020/08/28 14:00:00+00,43,1,2434,21,1,0,22,5,25,13,14992,,28.96606156,18.18902776,6.46685606,7.09582711,7.29118377,16.96037624,17.6,5.3,7.7,8.9
1409,County,55077,Marquette,2020/08/28 14:00:00+00,89,3,2480,20,1,0,23,8,79,2,15207,,25.49096111,18.77422808,9.6334782,12.26562457,12.92064863,16.96037624,17.6,5.3,7.7,8.9
1412,County,55067,Langlade,2020/08/28 14:00:00+00,80,1,2692,26,2,0,27,6,62,12,19164,,23.78520504,17.9848559,8.74188569,14.19843444,11.18167454,16.96037624,17.6,5.3,7.7,8.9
1413,County,55065,Lafayette,2020/08/28 14:00:00+00,185,0,2748,10,0,0,10,18,120,47,16735,,17.27181188,12.87341217,4.33689961,6.1111729,11.40157919,16.96037624,17.6,5.3,7.7,8.9
1415,County,55061,Kewaunee,2020/08/28 14:00:00+00,165,2,2969,14,2,0,16,8,105,52,20360,,20.05909707,11.3949457,5.58328859,6.40456206,8.26731291,16.96037624,17.6,5.3,7.7,8.9
1416,County,55047,Green Lake,2020/08/28 14:00:00+00,88,0,2990,25,0,0,25,11,46,31,18757,,23.622171,27.31916295,4.4148048,11.56618081,8.49430878,16.96037624,17.6,5.3,7.7,8.9
1418,County,55001,Adams,2020/08/28 14:00:00+00,106,4,3102,14,3,0,18,9,71,26,20073,,28.97292022,22.24978168,13.41742832,19.20308289,17.09789897,16.96037624,17.6,5.3,7.7,8.9
1420,County,55125,Vilas,2020/08/28 14:00:00+00,98,1,3414,37,0,0,38,5,47,46,21593,,29.77465829,20.42129663,9.26864139,12.67771608,12.1203435,16.96037624,17.6,5.3,7.7,8.9
1421,County,55103,Richland,2020/08/28 14:00:00+00,46,2,3445,29,4,0,31,5,37,4,17539,,21.64634146,15.37566547,8.20298246,9.44983105,6.47662427,16.96037624,17.6,5.3,7.7,8.9
1423,County,55113,Sawyer,2020/08/28 14:00:00+00,157,6,3882,26,0,0,32,4,101,52,16370,,25.77101817,26.84326215,6.60184284,10.09751532,8.87566867,16.96037624,17.6,5.3,7.7,8.9
1424,County,55023,Crawford,2020/08/28 14:00:00+00,99,0,3892,8,0,0,8,6,73,20,16288,,24.07127756,25.96850846,10.39956947,8.10619583,9.54657239,16.96037624,17.6,5.3,7.7,8.9
1425,County,55069,Lincoln,2020/08/28 14:00:00+00,81,3,3936,25,1,0,28,8,56,17,27848,,22.12221363,23.77341735,6.57135449,14.09132224,7.4689114,16.96037624,17.6,5.3,7.7,8.9
1426,County,55019,Clark,2020/08/28 14:00:00+00,236,0,4300,39,8,0,39,17,142,77,34491,,17.29944446,16.15990599,7.13812197,3.76249131,7.64311868,16.96037624,17.6,5.3,7.7,8.9
1427,County,55049,Iowa,2020/08/28 14:00:00+00,115,1,4404,38,0,0,39,11,60,44,23620,,18.2108492,12.67133605,5.30731296,6.05865792,9.77820817,16.96037624,17.6,5.3,7.7,8.9
1428,County,55123,Vernon,2020/08/28 14:00:00+00,94,1,4581,21,0,0,22,8,51,35,30516,,19.40436491,18.97032656,5.59015549,6.48540837,8.24682918,16.96037624,17.6,5.3,7.7,8.9
1429,County,55029,Door,2020/08/28 14:00:00+00,128,0,5156,35,3,0,35,9,43,76,27439,,29.25029411,10.72315606,3.24541969,11.29897678,13.56038636,16.96037624,17.6,5.3,7.7,8.9
1430,County,55121,Trempealeau,2020/08/28 14:00:00+00,411,0,5505,19,2,0,19,15,239,157,29438,,18.33151507,18.34090142,6.59544115,8.86041484,10.42456346,16.96037624,17.6,5.3,7.7,8.9
1431,County,55137,Waushara,2020/08/28 14:00:00+00,147,5,5801,22,2,0,27,14,117,16,24116,,23.61511235,30.98409506,8.44363951,11.11324362,11.64368145,16.96037624,17.6,5.3,7.7,8.9
1432,County,55093,Pierce,2020/08/28 14:00:00+00,285,4,5810,30,5,0,34,16,235,34,41603,,14.02425844,13.97356783,4.68974582,7.49678807,9.05044219,16.96037624,17.6,5.3,7.7,8.9
1433,County,55053,Jackson,2020/08/28 14:00:00+00,75,1,5828,4,1,0,5,4,52,19,20506,,20.52361595,19.83162523,10.84690333,7.19877302,9.67178115,16.96037624,17.6,5.3,7.7,8.9
1434,County,55045,Green,2020/08/28 14:00:00+00,262,1,6006,36,1,0,37,22,189,51,36864,,18.37836372,10.34528473,5.56913884,10.79049601,11.94327719,16.96037624,17.6,5.3,7.7,8.9
1435,County,55031,Douglas,2020/08/28 14:00:00+00,244,0,6102,47,0,0,47,16,215,13,43402,,18.27278115,23.68174354,10.70285283,10.9384054,9.69648157,16.96037624,17.6,5.3,7.7,8.9
1436,County,55085,Oneida,2020/08/28 14:00:00+00,205,2,6315,55,0,0,57,15,136,54,35345,,25.90148414,18.63932834,6.9042275,9.49114516,9.294129,16.96037624,17.6,5.3,7.7,8.9
1437,County,55033,Dunn,2020/08/28 14:00:00+00,169,6,6572,33,0,0,39,9,103,57,44498,,16.4727427,15.0202334,3.31707998,3.94436234,8.16904953,16.96037624,17.6,5.3,7.7,8.9
1438,County,55057,Juneau,2020/08/28 14:00:00+00,189,1,6912,40,1,0,41,8,113,68,26419,,21.66641891,29.32291596,4.00853992,12.26053847,8.49558053,16.96037624,17.6,5.3,7.7,8.9
1439,County,55083,Oconto,2020/08/28 14:00:00+00,412,7,7152,39,2,0,46,29,349,34,37556,,19.4747379,16.69607184,5.52454603,10.80684821,14.19632973,16.96037624,17.6,5.3,7.7,8.9
1440,County,55095,Polk,2020/08/28 14:00:00+00,170,3,7157,48,2,0,51,7,136,27,43349,,19.59908884,15.11612319,4.28335734,5.99569645,11.27644808,16.96037624,17.6,5.3,7.7,8.9
1441,County,55005,Barron,2020/08/28 14:00:00+00,367,4,7377,494,3,0,498,15,205,147,45252,,22.95117698,22.41198037,5.27764599,9.44121086,10.2081161,16.96037624,17.6,5.3,7.7,8.9
1442,County,55115,Shawano,2020/08/28 14:00:00+00,258,13,7484,48,0,0,61,15,205,38,41009,,21.64808531,17.11124847,4.72109959,6.84776744,10.72457941,16.96037624,17.6,5.3,7.7,8.9
1443,County,55015,Calumet,2020/08/28 14:00:00+00,484,11,7762,63,2,0,74,24,360,100,49807,,14.22604709,10.34834806,2.26506411,8.35475356,7.62046076,16.96037624,17.6,5.3,7.7,8.9
1444,County,55075,Marinette,2020/08/28 14:00:00+00,594,12,8321,34,6,0,46,34,369,191,40537,,24.06810299,21.91945681,7.45897745,6.03516482,8.75925893,16.96037624,17.6,5.3,7.7,8.9
1445,County,55081,Monroe,2020/08/28 14:00:00+00,276,2,8577,22,2,0,24,22,147,107,45502,,17.5007609,22.39489241,6.19989065,11.84072478,10.4181093,16.96037624,17.6,5.3,7.7,8.9
1446,County,55135,Waupaca,2020/08/28 14:00:00+00,647,15,8958,32,17,0,47,52,358,237,51444,,23.89862945,20.71741115,6.08122362,11.27545802,9.26157142,16.96037624,17.6,5.3,7.7,8.9
1447,County,55043,Grant,2020/08/28 14:00:00+00,426,1,10644,34,17,0,35,31,346,49,51828,,18.72493986,17.92943868,4.12869234,8.98792174,8.53185505,16.96037624,17.6,5.3,7.7,8.9
1448,County,55097,Portage,2020/08/28 14:00:00+00,569,19,10648,79,1,0,98,31,449,89,70599,,16.62778037,13.97837834,2.84981525,4.11174882,4.75114542,16.96037624,17.6,5.3,7.7,8.9
1449,County,55141,Wood,2020/08/28 14:00:00+00,440,9,11530,78,2,0,87,23,329,88,73274,,21.00748386,19.13191078,6.01011244,8.54576848,6.79474014,16.96037624,17.6,5.3,7.7,8.9
1450,County,55021,Columbia,2020/08/28 14:00:00+00,344,4,11581,78,2,0,82,34,235,75,56954,,17.92991178,21.03220995,4.72894373,8.39631758,8.12806802,16.96037624,17.6,5.3,7.7,8.9
1451,County,55017,Chippewa,2020/08/28 14:00:00+00,331,8,11880,56,0,0,64,15,206,110,63635,,17.52880723,16.66934272,6.48014542,5.8760884,8.03387845,16.96037624,17.6,5.3,7.7,8.9
1452,County,55071,Manitowoc,2020/08/28 14:00:00+00,505,17,12129,98,1,0,115,32,335,138,79407,,20.65317617,21.20381022,3.61995848,6.97029919,7.85154144,16.96037624,17.6,5.3,7.7,8.9
1453,County,55109,St. Croix,2020/08/28 14:00:00+00,618,7,12745,87,7,0,94,37,419,162,87917,,12.88094455,14.09219928,3.9474925,9.42986779,7.82159293,16.96037624,17.6,5.3,7.7,8.9
1454,County,55089,Ozaukee,2020/08/28 14:00:00+00,893,8,15462,157,18,0,165,80,550,263,88284,,19.62879131,7.85395018,2.839996,7.67735279,9.94915138,16.96037624,17.6,5.3,7.7,8.9
1455,County,55055,Jefferson,2020/08/28 14:00:00+00,870,22,15536,108,6,0,130,61,634,175,84652,,16.35665781,17.76599964,5.43851129,6.87194633,6.61364675,16.96037624,17.6,5.3,7.7,8.9
1456,County,55111,Sauk,2020/08/28 14:00:00+00,627,-1,16762,84,3,0,83,28,343,256,63596,,18.13164024,17.57997422,7.31477167,8.33061932,11.01270792,16.96037624,17.6,5.3,7.7,8.9
1457,County,55073,Marathon,2020/08/28 14:00:00+00,764,11,17314,121,13,0,132,63,660,41,135264,,17.1313854,19.02095822,5.2381413,9.1850309,9.36457612,16.96037624,17.6,5.3,7.7,8.9
1458,County,55035,Eau Claire,2020/08/28 14:00:00+00,780,12,17458,5,6,0,17,37,620,123,102991,,16.24114371,16.33314614,6.56706283,4.7010322,8.12684418,16.96037624,17.6,5.3,7.7,8.9
1459,County,55039,Fond du Lac,2020/08/28 14:00:00+00,1053,31,17885,205,9,0,236,80,827,146,102315,,18.8308359,17.14901714,4.29739658,6.44670854,8.30969711,16.96037624,17.6,5.3,7.7,8.9
1460,County,55117,Sheboygan,2020/08/28 14:00:00+00,1014,14,18768,152,8,0,166,56,446,512,115205,,18.13386893,14.41187031,5.62474379,7.22321063,8.34077339,16.96037624,17.6,5.3,7.7,8.9
1461,County,55027,Dodge,2020/08/28 14:00:00+00,1102,26,18968,146,5,0,172,61,394,647,87776,,18.34650524,22.5630591,5.86969757,9.72136178,11.86503308,16.96037624,17.6,5.3,7.7,8.9
1462,County,55127,Walworth,2020/08/28 14:00:00+00,1673,21,19673,218,27,0,239,75,611,987,103013,,17.17487697,19.06515777,7.48654409,7.10272968,8.59024893,16.96037624,17.6,5.3,7.7,8.9
1463,County,55131,Washington,2020/08/28 14:00:00+00,1565,22,20608,236,29,0,258,94,903,568,134535,,17.58398644,15.58052681,3.1170301,7.57901086,6.92660336,16.96037624,17.6,5.3,7.7,8.9
1464,County,55063,La Crosse,2020/08/28 14:00:00+00,1133,24,20627,70,1,0,94,36,575,522,117850,,17.26737258,15.54077866,3.43153191,5.11949414,6.45421565,16.96037624,17.6,5.3,7.7,8.9
1465,County,55105,Rock,2020/08/28 14:00:00+00,1641,28,29063,246,26,0,274,165,1057,419,161769,,16.49705176,20.28821246,5.79108365,9.61905138,11.38210431,16.96037624,17.6,5.3,7.7,8.9
1466,County,55087,Outagamie,2020/08/28 14:00:00+00,1741,49,31093,212,19,0,261,118,1327,296,184754,,14.85854189,15.37704767,3.11750496,6.53678312,9.05116442,16.96037624,17.6,5.3,7.7,8.9
1467,County,55139,Winnebago,2020/08/28 14:00:00+00,1461,28,32392,126,21,0,154,81,1174,206,169926,,16.4399093,19.27707767,4.44382751,6.41195861,8.24447332,16.96037624,17.6,5.3,7.7,8.9
1468,County,55059,Kenosha,2020/08/28 14:00:00+00,2929,9,32555,146,62,0,155,253,1417,1259,168330,,13.65087291,19.93967101,6.2667304,9.03203128,7.88875491,16.96037624,17.6,5.3,7.7,8.9
1469,County,55101,Racine,2020/08/28 14:00:00+00,3960,29,53830,275,89,0,304,407,3152,401,195398,,16.37248374,17.41763508,8.06029014,7.45863345,10.73895045,16.96037624,17.6,5.3,7.7,8.9
1470,County,55009,Brown,2020/08/28 14:00:00+00,5262,68,58264,202,58,0,270,298,4028,936,259786,,14.70715902,15.93419057,4.55355953,7.63443514,9.79779928,16.96037624,17.6,5.3,7.7,8.9
1471,County,55133,Waukesha,2020/08/28 14:00:00+00,5475,59,67285,564,73,0,623,358,2596,2521,398879,,18.65433146,14.17052622,4.84689171,6.9748383,8.51723936,16.96037624,17.6,5.3,7.7,8.9
1473,County,55025,Dane,2020/08/28 14:00:00+00,5330,36,159574,908,40,1,944,323,2839,2168,529843,,13.85232812,12.30597488,3.02620105,5.15192178,5.57717937,16.96037624,17.6,5.3,7.7,8.9
1474,County,55079,Milwaukee,2020/08/28 14:00:00+00,23841,165,217767,1976,485,0,2141,2352,11827,9662,954209,,13.37488711,20.53347109,6.1515252,7.50593708,9.81624438,16.96037624,17.6,5.3,7.7,8.9
